﻿Population,ID,Sex,Mom_ID,Litter,Treatment,Pred_Tutor,Pred,Tutor_pop,Birth Day,Day,Date,Time,Water,Run,Latency,Attempts,Notes,,,,
AH,AHF2_1P3G.2.1,dead,AHF2_1P3G,2,pred-/same,pred-/AH,pred-,AH,,1,19-Feb,4:00 PM,pred-,1,50,7,,,,,
AH,AHF2_1P3G.2.1,dead,AHF2_1P3G,2,pred-/same,pred-/AH,pred-,AH,,2,20-Feb,3:19 PM,pred+,1,101,2,day 1 video cut short ,,,,
AH,AHF2_1G4G.3.3,F,AHF2_1G4G,3,pred-/same,pred-/AH,pred-,AH,,2,22-Mar,3:47 PM,pred-,1,16,17,,,,,
AH,AHF2_1G4G.3.3,F,AHF2_1G4G,3,pred-/same,pred-/AH,pred-,AH,,1,21-Mar,3:06 PM,pred+,1,73,99,,,,,
AH,AHF2_1G4G.6.2,F,AHF2_1G4G,6,pred-/same,pred-/AH,pred-,AH,,1,29-Sep,3:17 PM,pred-,1,35,166,first few in middle,,,,
AH,AHF2_1G4G.6.2,F,AHF2_1G4G,6,pred-/same,pred-/AH,pred-,AH,,2,30-Sep,3:06 PM,pred+,1,58,7,,,,,
AH,AHF2_1G4P.2.1,F,AHF2_1G4P,2,pred-/same,pred-/AH,pred-,AH,,1,2-Mar,3:30 PM,pred+,1,39,55,,,,,
AH,AHF2_1G4P.2.1,F,AHF2_1G4P,2,pred-/same,pred-/AH,pred-,AH,,2,3-Mar,4:04 PM,pred-,1,310,72,,,,,
AH,AHF2_1G4P.5.4,F,AHF2_1G4P,5,pred-/same,pred-/AH,pred-,AH,,1,15-May,4:18 PM,pred-,1,194,11,,,,,
AH,AHF2_1G4P.5.4,F,AHF2_1G4P,5,pred-/same,pred-/AH,pred-,AH,,2,16-May,9:58 PM,pred+,1,69,12,,,,,
AH,AHF2_1O3Y.2.2,F,AHF2_1O3Y,2,pred-/same,pred-/AH,pred-,AH,,1,NA,NA,pred-,3,600,0,didn't eat,,,,
AH,AHF2_1O3Y.2.2,F,AHF2_1O3Y,2,pred-/same,pred-/AH,pred-,AH,,2,NA,NA,pred+,NA,NA,NA,not tested,,,,
AH,AHF2_1O3Y.4.7,F,AHF2_1O3Y,4,pred-/same,pred-/AH,pred-,AH,,1,3-Jul,3:55 PM,pred+,1,11,5,,,,,
AH,AHF2_1O3Y.4.7,F,AHF2_1O3Y,4,pred-/same,pred-/AH,pred-,AH,,2,5-Jul,4:40 PM,pred-,2,68,2,"didn't eat 7/4, s wimming frantically",,,,
AH,AHF2_1O3Y.5.1,F,AHF2_1O3Y,5,pred-/same,pred-/AH,pred-,AH,,1,29-Jul,3:03 PM,pred-,1,50,131,all at bottom very active may have started sooner pecking in water column but dind't count,,,,
AH,AHF2_1O3Y.5.1,F,AHF2_1O3Y,5,pred-/same,pred-/AH,pred-,AH,,2,30-Jul,2:58 PM,pred+,1,5,44,,,,,
AH,AHF2_1O3Y.5.2,F,AHF2_1O3Y,5,pred-/same,pred-/AH,pred-,AH,,1,29-Jul,3:23 PM,pred+,1,62,3,swimming around a lot,,,,
AH,AHF2_1O3Y.5.2,F,AHF2_1O3Y,5,pred-/same,pred-/AH,pred-,AH,,2,30-Jul,2:39 PM,pred-,1,33,40,first 2 at bottom,,,,
AH,AHF2_1P3G.4.1,F,AHF2_1P3G,4,pred-/same,pred-/AH,pred-,AH,,1,2-Aug,4:50 PM,pred+,1,354,26,,,,,
AH,AHF2_1P3G.4.1,F,AHF2_1P3G,4,pred-/same,pred-/AH,pred-,AH,,2,3-Aug,3:03 PM,pred-,1,43,39,,,,,
AH,AHF2_1P3G.5.10,F,AHF2_1P3G,5,pred-/same,pred-/AH,pred-,AH,11-Jul,1,26-Aug,3:09 PM,pred-,1,16,2,first peckat bottom,,,,
AH,AHF2_1P3G.5.10,F,AHF2_1P3G,5,pred-/same,pred-/AH,pred-,AH,11-Jul,2,27-Aug,3:06 PM,pred+,1,12,8,,,,,
AH,AHF2_1P3G.6.2,F,AHF2_1P3G,6,pred-/same,pred-/AH,pred-,AH,,1,21-Sep,3:18 PM,pred-,1,127,45,only pecked at middle and at bottom,,,,
AH,AHF2_1P3G.6.2,F,AHF2_1P3G,6,pred-/same,pred-/AH,pred-,AH,,2,22-Sep,3:14 PM,pred+,1,412,32,at top,,,,
AH,AHF2_1Y2G.4.2,F,AHF2_1Y2G,4,pred-/same,pred-/AH,pred-,AH,24-Jul,1,8-Sep,2:17 PM,pred+,1,160,5,,,,,
AH,AHF2_1Y2G.4.2,F,AHF2_1Y2G,4,pred-/same,pred-/AH,pred-,AH,24-Jul,2,9-Sep,2:59 PM,pred-,1,96,44,,,,,
AH,AHF2_1Y2P.3.1,F,AHF2_1Y2P,3,pred-/same,pred-/AH,pred-,AH,,1,25-Feb,4:10 PM,pred+,1,147,11,,,,,
AH,AHF2_1Y2P.3.1,F,AHF2_1Y2P,3,pred-/same,pred-/AH,pred-,AH,,2,26-Feb,3:26 PM,pred-,1,34,26,,,,,
AH,AHF2_1Y2P.5.4,F,AHF2_1Y2P,5,pred-/same,pred-/AH,pred-,AH,,1,26-Apr,5:09 PM,pred-,1,23,54,,,,,
AH,AHF2_1Y2P.5.4,F,AHF2_1Y2P,5,pred-/same,pred-/AH,pred-,AH,,2,27-Apr,3:26 PM,pred+,1,15,24,,,,,
AH,AHF2_1Y2P.6.1,F,AHF2_1Y2P,6,pred-/same,pred-/AH,pred-,AH,,1,15-Sep,3:47 PM,pred-,1,47,7,,,,,
AH,AHF2_1Y2P.6.1,F,AHF2_1Y2P,6,pred-/same,pred-/AH,pred-,AH,,2,16-Sep,2:45 PM,pred+,1,215,4,,,,,
AH,AHF2_1Y2P.6.2,F,AHF2_1Y2P,6,pred-/same,pred-/AH,pred-,AH,,1,15-Sep,3:52 PM,pred+,1,59,31,,,,,
AH,AHF2_1Y2P.6.2,F,AHF2_1Y2P,6,pred-/same,pred-/AH,pred-,AH,,2,16-Sep,2:52 PM,pred-,1,368,3,,,,,
AH,AHF2_1Y3O.1.4,F,AHF2_1Y3O,1,pred-/same,pred-/AH,pred-,AH,,1,22-Jan,3:17 PM,pred-,1,46,77,,,,,
AH,AHF2_1Y3O.1.4,F,AHF2_1Y3O,1,pred-/same,pred-/AH,pred-,AH,,2,23-Jan,3:00 PM,pred+,1,40,40,,,,,
AH,AHF2_1Y3O.2.1,F,AHF2_1Y3O,2,pred-/same,pred-/AH,pred-,AH,,1,21-Feb,3:42 PM,pred+,1,53,112,,,,,
AH,AHF2_1Y3O.2.1,F,AHF2_1Y3O,2,pred-/same,pred-/AH,pred-,AH,,2,22-Feb,2:30 PM,pred-,1,78,80,,,,,
AH,AHF2_1Y3O.5.1,F,AHF2_1Y3O,5,pred-/same,pred-/AH,pred-,AH,,1,3-Jun,4:00 PM,pred-,1,82,8,bottom,,,,
AH,AHF2_1Y3O.5.1,F,AHF2_1Y3O,5,pred-/same,pred-/AH,pred-,AH,,2,4-Jun,3:33 PM,pred+,1,74,10,,,,,
AH,AHF2_1Y3O.6.3,F,AHF2_1Y3O,6,pred-/same,pred-/AH,pred-,AH,,1,28-Jun,1:37 PM,pred+,1,33,86,,,,,
AH,AHF2_1Y3O.6.3,F,AHF2_1Y3O,6,pred-/same,pred-/AH,pred-,AH,,2,29-Jun,3:19 PM,pred-,1,13,34,,,,,
AH,AHF2_1G4G.2.1,M,AHF2_1G4G,2,pred-/same,pred-/AH,pred-,AH,,1,27-Feb,4:13 PM,pred-,1,482,3,camera malfunction so no day 1 video,,,,
AH,AHF2_1G4G.2.1,M,AHF2_1G4G,2,pred-/same,pred-/AH,pred-,AH,,2,28-Feb,3:02 PM,pred+,1,105,17,,,,,
AH,AHF2_1G4G.6.1,M,AHF2_1G4G,6,pred-/same,pred-/AH,pred-,AH,,1,30-Sep,3:48 PM,pred+,2,130,36,didn't eat 9/29; frantic swimming,,,,
AH,AHF2_1G4G.6.1,M,AHF2_1G4G,6,pred-/same,pred-/AH,pred-,AH,,2,1-Oct,2:53 PM,pred-,1,11,17,top and bottom,,,,
AH,AHF2_1G4P.3.1,M,AHF2_1G4P,3,pred-/same,pred-/AH,pred-,AH,,1,6-Apr,5:50 PM,pred-,1,476,39,,,,,
AH,AHF2_1G4P.3.1,M,AHF2_1G4P,3,pred-/same,pred-/AH,pred-,AH,,2,7-Apr,3:00 PM,pred+,1,522,17,,,,,
AH,AHF2_1G4P.4.1,M,AHF2_1G4P,4,pred-/same,pred-/AH,pred-,AH,,1,24-Apr,3:50 PM,pred+,1,65,33,missing day 1 video ,,,,
AH,AHF2_1G4P.4.1,M,AHF2_1G4P,4,pred-/same,pred-/AH,pred-,AH,,2,25-Apr,3:12 PM,pred-,1,30,53,,,,,
AH,AHF2_1O3Y.4.6,M,AHF2_1O3Y,4,pred-/same,pred-/AH,pred-,AH,,1,3-Jul,3:49 PM,pred+,1,12,7,,,,,
AH,AHF2_1O3Y.4.6,M,AHF2_1O3Y,4,pred-/same,pred-/AH,pred-,AH,,2,4-Jul,2:12 PM,pred-,1,23,2,,,,,
AH,AHF2_1O3Y.4.8,M,AHF2_1O3Y,4,pred-/same,pred-/AH,pred-,AH,,1,4-Jul,3:06 PM,pred-,2,137,9,didn't eat 7/3; stayed in small section of tank to eat,,,,
AH,AHF2_1O3Y.4.8,M,AHF2_1O3Y,4,pred-/same,pred-/AH,pred-,AH,,2,5-Jul,4:57 PM,pred+,1,32,7,,,,,
AH,AHF2_1O3Y.4.9,M,AHF2_1O3Y,4,pred-/same,pred-/AH,pred-,AH,,1,3-Jul,3:07 PM,pred-,1,19,6,last pecks at bottom only first at top,,,,
AH,AHF2_1O3Y.4.9,M,AHF2_1O3Y,4,pred-/same,pred-/AH,pred-,AH,,2,4-Jul,2:34 PM,pred+,1,136,2,,,,,
AH,AHF2_1Y2G.3.1,M,AHF2_1Y2G,3,pred-/same,pred-/AH,pred-,AH,,1,13-Aug,3:03 PM,pred+,1,180,38,,,,,
AH,AHF2_1Y2G.3.1,M,AHF2_1Y2G,3,pred-/same,pred-/AH,pred-,AH,,2,14-Aug,3:06 PM,pred-,1,37,20,,,,,
AH,AHF2_1Y2G.3.2,M,AHF2_1Y2G,3,pred-/same,pred-/AH,pred-,AH,,1,14-Aug,4:15 PM,pred-,1,10,3,8/13 didn't eat,,,,
AH,AHF2_1Y2G.3.2,M,AHF2_1Y2G,3,pred-/same,pred-/AH,pred-,AH,,2,15-Aug,2:25 PM,pred+,1,90,1,,,,,
AH,AHF2_1Y2G.4.1,M,AHF2_1Y2G,4,pred-/same,pred-/AH,pred-,AH,24-Jul,1,8-Sep,2:25 PM,pred-,1,126,23,was eating during previous tiral; first at bottom,,,,
AH,AHF2_1Y2G.4.1,M,AHF2_1Y2G,4,pred-/same,pred-/AH,pred-,AH,24-Jul,2,9-Sep,3:22 PM,pred+,1,117,12,first 3 in middle,,,,
AH,AHF2_1Y3O.4.1,M,AHF2_1Y3O,4,pred-/same,pred-/AH,pred-,AH,,1,9-May,4:23 PM,pred+,1,464,4,,,,,
AH,AHF2_1Y3O.4.1,M,AHF2_1Y3O,4,pred-/same,pred-/AH,pred-,AH,,2,10-May,6:09 PM,pred-,1,183,3,,,,,
AH,AHF2_1Y3O.5.2,M,AHF2_1Y3O,5,pred-/same,pred-/AH,pred-,AH,,1,3-Jun,4:07 PM,pred+,1,60,4,,,,,
AH,AHF2_1Y3O.5.2,M,AHF2_1Y3O,5,pred-/same,pred-/AH,pred-,AH,,2,4-Jun,4:24 PM,pred-,1,22,4,,,,,
AH,AHF2_1Y3O.6.1,M,AHF2_1Y3O,6,pred-/same,pred-/AH,pred-,AH,,1,28-Jun,1:30 PM,pred-,1,95,17,all at bottom,,,,
AH,AHF2_1Y3O.6.1,M,AHF2_1Y3O,6,pred-/same,pred-/AH,pred-,AH,,2,29-Jun,3:59 PM,pred+,1,84,28,,,,,
AH,AHF2_1Y3O.7.1,M,AHF2_1Y3O,7,pred-/same,pred-/AH,pred-,AH,,1,24-Jul,3:25 PM,pred+,1,91,92,lots of GS lol,,,,
AH,AHF2_1Y3O.7.1,M,AHF2_1Y3O,7,pred-/same,pred-/AH,pred-,AH,,2,25-Jul,3:43 PM,pred-,1,33,7,,,,,
AH,AHF2_1O3Y.2.1,M,AHF2-1O3Y,2,pred-/same,pred-/AH,pred-,AH,,1,18-May,3:20 PM,pred+,2,192,3,,,,,
AH,AHF2_1O3Y.2.1,M,AHF2-1O3Y,2,pred-/same,pred-/AH,pred-,AH,,2,19-May,3:08 PM,pred-,1,230,19,,,,,
AH,AHF2_1P3G.6.1,F,AHF2_1P3G,6,pred-/same,pred-/AH,pred-,AH,,1,22-Sep,3:34 PM,pred+,2,119,8,didn't eat 9/21,,,,
AH,AHF2_1P3G.6.1,F,AHF2_1P3G,6,pred-/same,pred-/AH,pred-,AH,,2,23-Sep,4:00 PM,pred-,1,298,4,,,,,
AH,AHF2_1G4G.6.3,F,AHF2_1G4G,6,pred-/dif,pred-/AL,pred-,AL,,1,29-Sep,3:13 PM,pred+,1,145,19,,,,,
AH,AHF2_1G4G.6.3,F,AHF2_1G4G,6,pred-/dif,pred-/AL,pred-,AL,,2,30-Sep,3:42 PM,pred-,1,60,27,start at middle,,,,
AH,AHF2_1G4P.4.2,F,AHF2_1G4P,4,pred-/dif,pred-/AL,pred-,AL,,1,24-Apr,3:40 PM,pred+,1,158,47,,,,,
AH,AHF2_1G4P.4.2,F,AHF2_1G4P,4,pred-/dif,pred-/AL,pred-,AL,,2,25-Apr,3:17 PM,pred-,1,19,37,bottom and top ,,,,
AH,AHF2_1G4P.5.2,F,AHF2_1G4P,5,pred-/dif,pred-/AL,pred-,AL,,1,15-May,4:24 PM,pred-,1,20,38,,,,,
AH,AHF2_1G4P.5.2,F,AHF2_1G4P,5,pred-/dif,pred-/AL,pred-,AL,,2,16-May,10:05 PM,pred+,1,55,33,,,,,
AH,AHF2_1G4P.5.3,F,AHF2_1G4P,5,pred-/dif,pred-/AL,pred-,AL,,1,15-May,3:40 PM,pred+,1,315,5,redo from 2/17,,,,
AH,AHF2_1G4P.5.3,F,AHF2_1G4P,5,pred-/dif,pred-/AL,pred-,AL,,2,16-May,9:30 PM,pred-,1,118,10,,,,,
AH,AHF2_1O3P.1.4,F,AHF2_1O3P,1,pred-/dif,pred-/AL,pred-,AL,,1,18-Feb,3:45 PM,pred+,2,134,5,,,,,
AH,AHF2_1O3P.1.4,F,AHF2_1O3P,1,pred-/dif,pred-/AL,pred-,AL,,2,19-Feb,3:50 PM,pred-,1,212,3,,,,,
AH,AHF2_1O3P.3.2,F,AHF2_1O3P,3,pred-/dif,pred-/AL,pred-,AL,,1,12-Mar,4:15 PM,pred+,1,154,41,,,,,
AH,AHF2_1O3P.3.2,F,AHF2_1O3P,3,pred-/dif,pred-/AL,pred-,AL,,2,13-Mar,3:40 PM,pred-,1,157,64,didn't eat 7/3,,,,
AH,AHF2_1O3Y.4.10,F,AHF2_1O3Y,4,pred-/dif,pred-/AL,pred-,AL,,1,4-Jul,2:45 PM,pred-,2,69,4,,,,,
AH,AHF2_1O3Y.4.10,F,AHF2_1O3Y,4,pred-/dif,pred-/AL,pred-,AL,,2,5-Jul,4:51 PM,pred+,1,59,7,,,,,
AH,AHF2_1O3Y.4.12,F,AHF2_1O3Y,4,pred-/dif,pred-/AL,pred-,AL,,1,3-Jul,3:26 PM,pred+,1,9,106,,,,,
AH,AHF2_1O3Y.4.12,F,AHF2_1O3Y,4,pred-/dif,pred-/AL,pred-,AL,,2,4-Jul,2:08 PM,pred-,1,50,60,,,,,
AH,AHF2_1P3G.2.2,F,AHF2_1P3G,2,pred-/dif,pred-/AL,pred-,AL,,1,19-Feb,2:06 PM,pred+,1,122,27,,,,,
AH,AHF2_1P3G.2.2,F,AHF2_1P3G,2,pred-/dif,pred-/AL,pred-,AL,,2,20-Feb,3:35 PM,pred-,1,223,4,at end of 3 min found food at top and began eating lots. Ate from bottom during 2 min,,,,
AH,AHF2_1P3G.5.12,F,AHF2_1P3G,5,pred-/dif,pred-/AL,pred-,AL,11-Jul,1,26-Aug,3:23 PM,pred-,1,20,13,,,,,
AH,AHF2_1P3G.5.12,F,AHF2_1P3G,5,pred-/dif,pred-/AL,pred-,AL,11-Jul,2,27-Aug,3:19 PM,pred+,1,21,55,,,,,
AH,AHF2_1P3G.6.3,F,AHF2_1P3G,6,pred-/dif,pred-/AL,pred-,AL,,1,21-Sep,3:05 PM,pred+,1,22,17,,,,,
AH,AHF2_1P3G.6.3,F,AHF2_1P3G,6,pred-/dif,pred-/AL,pred-,AL,,2,22-Sep,3:20 PM,pred-,1,24,14,"top,bottom,middle",,,,
AH,AHF2_1Y2G.3.4,F,AHF2_1Y2G,3,pred-/dif,pred-/AL,pred-,AL,,1,13-Aug,2:10 PM,pred-,1,451,9,weired open gape swallow in middle of water column day 2 ~6 min; also had weird pecks in the middle of glass; didn't count those in data,,,,
AH,AHF2_1Y2G.3.4,F,AHF2_1Y2G,3,pred-/dif,pred-/AL,pred-,AL,,2,14-Aug,2:08 PM,pred+,1,318,24,,,,,
AH,AHF2_1Y2G.3.5,F,AHF2_1Y2G,3,pred-/dif,pred-/AL,pred-,AL,,1,15-Aug,2:19 PM,pred+,1,74,7,"didn’t eat 8/13, 8/14 ",,,,
AH,AHF2_1Y2G.3.5,F,AHF2_1Y2G,3,pred-/dif,pred-/AL,pred-,AL,,2,16-Aug,3:08 PM,pred-,1,565,19,,,,,
AH,AHF2_1Y2G.4.3,F,AHF2_1Y2G,4,pred-/dif,pred-/AL,pred-,AL,24-Jul,1,8-Sep,2:11 PM,pred+,1,28,11,,,,,
AH,AHF2_1Y2G.4.3,F,AHF2_1Y2G,4,pred-/dif,pred-/AL,pred-,AL,24-Jul,2,9-Sep,3:05 PM,pred-,1,81,30,,,,,
AH,AHF2_1Y2G.4.4,F,AHF2_1Y2G,4,pred-/dif,pred-/AL,pred-,AL,24-Jul,1,8-Sep,2:06 PM,pred-,1,15,83,,,,,
AH,AHF2_1Y2G.4.4,F,AHF2_1Y2G,4,pred-/dif,pred-/AL,pred-,AL,24-Jul,2,9-Sep,3:14 PM,pred+,1,282,1,,,,,
AH,AHF2_1Y2P.4.1,F,AHF2_1Y2P,4,pred-/dif,pred-/AL,pred-,AL,,1,21-Mar,4:00 PM,pred-,1,144,6,,,,,
AH,AHF2_1Y2P.4.1,F,AHF2_1Y2P,4,pred-/dif,pred-/AL,pred-,AL,,2,22-Mar,3:15 PM,pred+,1,25,70,consider excluding latency because 2 numbers are written in data sheet (1:18 and 43),,,,
AH,AHF2_1Y3O.2.2,F,AHF2_1Y3O,2,pred-/dif,pred-/AL,pred-,AL,,1,21-Feb,3:56 PM,pred-,1,11,118,,,,,
AH,AHF2_1Y3O.2.2,F,AHF2_1Y3O,2,pred-/dif,pred-/AL,pred-,AL,,2,22-Feb,2:35 PM,pred+,1,43,8,,,,,
AH,AHF2_1Y3O.3.2,F,AHF2_1Y3O,3,pred-/dif,pred-/AL,pred-,AL,,1,16-Apr,6:07 PM,pred-,1,58,22,,,,,
AH,AHF2_1Y3O.3.2,F,AHF2_1Y3O,3,pred-/dif,pred-/AL,pred-,AL,,2,17-Apr,4:17 PM,pred+,1,95,28,,,,,
AH,AHF2_1Y3O.5.4,F,AHF2_1Y3O,5,pred-/dif,pred-/AL,pred-,AL,,1,3-Jun,4:17 PM,pred-,1,18,14,,,,,
AH,AHF2_1Y3O.5.4,F,AHF2_1Y3O,5,pred-/dif,pred-/AL,pred-,AL,,2,4-Jun,3:52 PM,pred+,1,31,1,,,,,
AH,AHF2_1Y3O.6.4,F,AHF2_1Y3O,6,pred-/dif,pred-/AL,pred-,AL,,1,28-Jun,1:42 PM,pred-,1,8,59,,,,,
AH,AHF2_1Y3O.6.4,F,AHF2_1Y3O,6,pred-/dif,pred-/AL,pred-,AL,,2,29-Jun,4:04 PM,pred+,1,7,28,moved really slowly ,,,,
AH,AHF2_1Y3O.6.5,F,AHF2_1Y3O,6,pred-/dif,pred-/AL,pred-,AL,,1,28-Jun,1:50 PM,pred+,1,167,3,,,,,
AH,AHF2_1Y3O.6.5,F,AHF2_1Y3O,6,pred-/dif,pred-/AL,pred-,AL,,2,29-Jun,3:24 PM,pred-,1,38,46,,,,,
AH,AHF2_1G4G.3.1,M,AHF2_1G4G,3,pred-/dif,pred-/AL,pred-,AL,,1,21-Mar,3:54 PM,pred-,1,35,163,redone from 2/6,,,,
AH,AHF2_1G4G.3.1,M,AHF2_1G4G,3,pred-/dif,pred-/AL,pred-,AL,,2,22-Mar,3:11 PM,pred+,1,20,58,,,,,
AH,AHF2_1G4G.6.4,M,AHF2_1G4G,6,pred-/dif,pred-/AL,pred-,AL,,1,29-Sep,3:23 PM,pred-,1,120,5,,,,,
AH,AHF2_1G4G.6.4,M,AHF2_1G4G,6,pred-/dif,pred-/AL,pred-,AL,,2,30-Sep,3:12 PM,pred+,1,78,4,,,,,
AH,AHF2_1G4G.6.5,M,AHF2_1G4G,6,pred-/dif,pred-/AL,pred-,AL,,1,29-Sep,3:29 PM,pred-,1,125,5,,,,,
AH,AHF2_1G4G.6.5,M,AHF2_1G4G,6,pred-/dif,pred-/AL,pred-,AL,,2,30-Sep,3:16 PM,pred+,1,20,12,,,,,
AH,AHF2_1G4O.1.1,M,AHF2_1G4O,1,pred-/dif,pred-/AL,pred-,AL,,1,7-Feb,3:30 PM,pred-,2,354,54,,,,,
AH,AHF2_1G4O.1.1,M,AHF2_1G4O,1,pred-/dif,pred-/AL,pred-,AL,,2,8-Feb,3:15 PM,pred+,1,489,5,,,,,
AH,AHF2_1G4O.1.2,M,AHF2_1G4O,1,pred-/dif,pred-/AL,pred-,AL,,1,7-Feb,3:43 PM,pred+,2,282,6,,,,,
AH,AHF2_1G4O.1.2,M,AHF2_1G4O,1,pred-/dif,pred-/AL,pred-,AL,,2,8-Feb,3:26 PM,pred-,1,51,17,,,,,
AH,AHF2_1G4P.3.2,M,AHF2_1G4P,3,pred-/dif,pred-/AL,pred-,AL,,1,6-Apr,5:33 PM,pred+,1,37,14,,,,,
AH,AHF2_1G4P.3.2,M,AHF2_1G4P,3,pred-/dif,pred-/AL,pred-,AL,,2,7-Apr,2:50 PM,pred-,1,18,3,mostly on floor,,,,
AH,AHF2_1O3P.1.3,M,AHF2_1O3P,1,pred-/dif,pred-/AL,pred-,AL,,1,17-Feb,NA,pred+,NA,15,4,not clear if redone,,,,
AH,AHF2_1O3P.1.3,M,AHF2_1O3P,1,pred-/dif,pred-/AL,pred-,AL,,2,18-Feb,NA,pred-,NA,14,67,,,,,
AH,AHf2_1O3Y.1.1,M,AHf2_1O3Y,1,pred-/dif,pred-/AL,pred-,AL,,1,26-Apr,5:14 PM,pred-,1,87,71,,,,,
AH,AHf2_1O3Y.1.1,M,AHf2_1O3Y,1,pred-/dif,pred-/AL,pred-,AL,,2,27-Apr,3:19 PM,pred+,1,25,27,,,,,
AH,AHF2_1O3Y.2.3,M,AHF2_1O3Y,2,pred-/dif,pred-/AL,pred-,AL,,1,17-May,3:35 PM,pred-,1,5,24,,,,,
AH,AHF2_1O3Y.2.3,M,AHF2_1O3Y,2,pred-/dif,pred-/AL,pred-,AL,,2,18-May,3:15 PM,pred+,1,39,2,,,,,
AH,AHF2_1O3Y.4.11,M,AHF2_1O3Y,4,pred-/dif,pred-/AL,pred-,AL,,1,3-Jul,3:21 PM,pred+,1,14,76,,,,,
AH,AHF2_1O3Y.4.11,M,AHF2_1O3Y,4,pred-/dif,pred-/AL,pred-,AL,,2,4-Jul,3:48 PM,pred-,1,448,10,,,,,
AH,AHF2_1O3Y.5.16,M,AHF2_1O3Y,5,pred-/dif,pred-/AL,pred-,AL,,1,27-Jul,2:19 PM,pred-,1,88,3,,,,,
AH,AHF2_1O3Y.5.16,M,AHF2_1O3Y,5,pred-/dif,pred-/AL,pred-,AL,,2,28-Jul,3:42 PM,pred+,1,48,6,,,,,
AH,AHF2_1O3Y.5.17,M,AHF2_1O3Y,5,pred-/dif,pred-/AL,pred-,AL,,1,28-Jul,3:13 PM,pred-,2,139,30,didn't eat 7/27,,,,
AH,AHF2_1O3Y.5.17,M,AHF2_1O3Y,5,pred-/dif,pred-/AL,pred-,AL,,2,29-Jul,2:44 PM,pred+,1,84,15,,,,,
AH,AHF2_1O3Y.5.4,M,AHF2_1O3Y,5,pred-/dif,pred-/AL,pred-,AL,,1,27-Jul,2:54 PM,pred-,1,344,5,,,,,
AH,AHF2_1O3Y.5.4,M,AHF2_1O3Y,5,pred-/dif,pred-/AL,pred-,AL,,2,28-Jul,3:51 PM,pred+,1,246,6,,,,,
AH,AHF2_1P3G.6.5,M,AHF2_1P3G,6,pred-/dif,pred-/AL,pred-,AL,,1,21-Sep,3:30 PM,pred-,1,480,23,,,,,
AH,AHF2_1P3G.6.5,M,AHF2_1P3G,6,pred-/dif,pred-/AL,pred-,AL,,2,22-Sep,3:28 PM,pred+,1,257,3,,,,,
AH,AHF2_1Y2P.6.3,M,AHF2_1Y2P,6,pred-/dif,pred-/AL,pred-,AL,,1,15-Sep,3:57 PM,pred-,1,19,28,,,,,
AH,AHF2_1Y2P.6.3,M,AHF2_1Y2P,6,pred-/dif,pred-/AL,pred-,AL,,2,16-Sep,2:30 PM,pred+,1,65,28,,,,,
AH,AHF2_1Y3O.4.3,M,AHF2_1Y3O,4,pred-/dif,pred-/AL,pred-,AL,,1,9-May,4:19 PM,pred+,1,14,161,bottom,,,,
AH,AHF2_1Y3O.4.3,M,AHF2_1Y3O,4,pred-/dif,pred-/AL,pred-,AL,,2,10-May,5:43 PM,pred-,1,3,8,bottom,,,,
AH,AHF2_1Y3O.5.3,M,AHF2_1Y3O,5,pred-/dif,pred-/AL,pred-,AL,,1,3-Jun,3:55 PM,pred+,1,124,7,redone from 2/6; cut off at 10 min,,,,
AH,AHF2_1Y3O.5.3,M,AHF2_1Y3O,5,pred-/dif,pred-/AL,pred-,AL,,2,4-Jun,4:18 PM,pred-,1,474,1,,,,,
AH,AHF2_1Y3Y.1.1,M,AHF2_1Y3Y,1,pred-/dif,pred-/AL,pred-,AL,,1,7-Feb,3:53 PM,pred+,2,600,0,didn't eat ,,,,
AH,AHF2_1Y3Y.1.1,M,AHF2_1Y3Y,1,pred-/dif,pred-/AL,pred-,AL,,2,8-Feb,3:33 PM,pred-,1,136,3,redone from 2/6,,,,
AH,AHF2_1Y3Y.1.2,M,AHF2_1Y3Y,1,pred-/dif,pred-/AL,pred-,AL,,1,7-Feb,4:07 PM,pred-,2,47,21,all pecking at floor,,,,
AH,AHF2_1Y3Y.1.2,M,AHF2_1Y3Y,1,pred-/dif,pred-/AL,pred-,AL,,2,8-Feb,3:40 PM,pred+,1,190,6,,,,,
AH,AHF2_1G3P4Y.5.1,F,AHF2_1G3P4Y,5,pred+/same,pred+/AH,pred+,AH,,1,14-Sep,3:00 PM,pred-,1,12,4,,,,,
AH,AHF2_1G3P4Y.5.1,F,AHF2_1G3P4Y,5,pred+/same,pred+/AH,pred+,AH,,2,15-Sep,4:01 PM,pred+,1,12,89,,,,,
AH,AHF2_1G4G.6.6,F,AHF2_1G4G,6,pred+/same,pred+/AH,pred+,AH,,1,29-Sep,4:01 PM,pred+,1,6,27,,,,,
AH,AHF2_1G4G.6.6,F,AHF2_1G4G,6,pred+/same,pred+/AH,pred+,AH,,2,30-Sep,3:31 PM,pred-,1,88,28,,,,,
AH,AHF2_1G4G.6.7,F,AHF2_1G4G,6,pred+/same,pred+/AH,pred+,AH,,1,29-Sep,4:08 PM,pred-,1,116,77,bottom and top ,,,,
AH,AHF2_1G4G.6.7,F,AHF2_1G4G,6,pred+/same,pred+/AH,pred+,AH,,2,30-Sep,3:25 PM,pred+,1,220,3,bottom,,,,
AH,AHF2_1G4P.2.3,F,AHF2_1G4P,2,pred+/same,pred+/AH,pred+,AH,,1,2-Mar,3:35 PM,pred-,1,101,30,,,,,
AH,AHF2_1G4P.2.3,F,AHF2_1G4P,2,pred+/same,pred+/AH,pred+,AH,,2,3-Mar,3:52 PM,pred+,1,421,2,,,,,
AH,AHF2_1G4P.3.3,F,AHF2_1G4P,3,pred+/same,pred+/AH,pred+,AH,,1,6-Apr,5:42 PM,pred+,1,31,38,,,,,
AH,AHF2_1G4P.3.3,F,AHF2_1G4P,3,pred+/same,pred+/AH,pred+,AH,,2,7-Apr,2:55 PM,pred-,1,17,2,,,,,
AH,AHF2_1O3Y.1.5,F,AHF2_1O3Y,1,pred+/same,pred+/AH,pred+,AH,,1,26-Apr,5:00 PM,pred+,1,202,28,,,,,
AH,AHF2_1O3Y.1.5,F,AHF2_1O3Y,1,pred+/same,pred+/AH,pred+,AH,,2,27-Apr,2:58 PM,pred-,1,106,13,,,,,
AH,AHF2_1O3Y.2.4,F,AHF2-1O3Y,2,pred+/same,pred+/AH,pred+,AH,,1,17-May,3:53 PM,pred+,1,9,33,,,,,
AH,AHF2_1O3Y.2.4,F,AHF2-1O3Y,2,pred+/same,pred+/AH,pred+,AH,,2,19-May,3:13 PM,pred-,2,21,6,,,,,
AH,AHF2_1O3Y.4.1,F,AHF2_1O3Y,4,pred+/same,pred+/AH,pred+,AH,,1,3-Jul,2:43 PM,pred-,1,222,36,,,,,
AH,AHF2_1O3Y.4.1,F,AHF2_1O3Y,4,pred+/same,pred+/AH,pred+,AH,,2,4-Jul,2:22 PM,pred+,1,47,9,,,,,
AH,AHF2_1O3Y.4.4,F,AHF2_1O3Y,4,pred+/same,pred+/AH,pred+,AH,,1,3-Jul,2:15 PM,pred+,1,51,2,,,,,
AH,AHF2_1O3Y.4.4,F,AHF2_1O3Y,4,pred+/same,pred+/AH,pred+,AH,,2,4-Jul,3:36 PM,pred-,1,44,3,,,,,
AH,AHF2_1O3Y.5.7,F,AHF2_1O3Y,5,pred+/same,pred+/AH,pred+,AH,,1,29-Jul,3:40 PM,pred+,1,30,31,,,,,
AH,AHF2_1O3Y.5.7,F,AHF2_1O3Y,5,pred+/same,pred+/AH,pred+,AH,,2,30-Jul,2:33 PM,pred-,1,18,98,,,,,
AH,AHF2_1P3G.1.3,F,AHF2_1P3G,1,pred+/same,pred+/AH,pred+,AH,,1,29-Jan,3:15 PM,pred+,1,314,8,,,,,
AH,AHF2_1P3G.1.3,F,AHF2_1P3G,1,pred+/same,pred+/AH,pred+,AH,,2,30-Jan,3:32 PM,pred-,1,187,5,,,,,
AH,AHF2_1P3G.5.5,F,AHF2_1P3G,5,pred+/same,pred+/AH,pred+,AH,11-Jul,1,26-Aug,3:05 PM,pred+,1,11,13,all but first peck at glass,,,,
AH,AHF2_1P3G.5.5,F,AHF2_1P3G,5,pred+/same,pred+/AH,pred+,AH,11-Jul,2,27-Aug,3:22 PM,pred-,1,7,36,,,,,
AH,AHF2_1P3G.5.6,F,AHF2_1P3G,5,pred+/same,pred+/AH,pred+,AH,11-Jul,1,26-Aug,3:19 PM,pred-,1,31,275,saw pecking before trial even started,,,,
AH,AHF2_1P3G.5.6,F,AHF2_1P3G,5,pred+/same,pred+/AH,pred+,AH,11-Jul,2,27-Aug,3:14 PM,pred+,1,11,66,,,,,
AH,AHF2_1Y2G.4.5,F,AHF2_1Y2G,4,pred+/same,pred+/AH,pred+,AH,24-Jul,1,8-Sep,2:49 PM,pred+,1,155,122,,,,,
AH,AHF2_1Y2G.4.5,F,AHF2_1Y2G,4,pred+/same,pred+/AH,pred+,AH,24-Jul,2,9-Sep,3:50 PM,pred-,1,20,91,,,,,
AH,AHF2_1Y2G.4.6,F,AHF2_1Y2G,4,pred+/same,pred+/AH,pred+,AH,24-Jul,1,8-Sep,2:37 PM,pred-,1,115,65,,,,,
AH,AHF2_1Y2G.4.6,F,AHF2_1Y2G,4,pred+/same,pred+/AH,pred+,AH,24-Jul,2,9-Sep,3:39 PM,pred+,1,27,26,,,,,
AH,AHF2_1Y2P.6.6,F,AHF2_1Y2P,6,pred+/same,pred+/AH,pred+,AH,,1,15-Sep,3:33 PM,pred+,1,16,12,all at bottom,,,,
AH,AHF2_1Y2P.6.6,F,AHF2_1Y2P,6,pred+/same,pred+/AH,pred+,AH,,2,16-Sep,3:00 PM,pred-,1,22,126,,,,,
AH,AHF2_1Y3O.2.4,F,AHF2_1Y3O,2,pred+/same,pred+/AH,pred+,AH,,1,21-Feb,4:01 PM,pred-,1,3,185,,,,,
AH,AHF2_1Y3O.2.4,F,AHF2_1Y3O,2,pred+/same,pred+/AH,pred+,AH,,2,22-Feb,3:09 PM,pred+,1,5,80,,,,,
AH,AHF2_1Y3O.4.5,F,AHF2_1Y3O,4,pred+/same,pred+/AH,pred+,AH,,1,9-May,4:19 PM,pred+,1,45,91,,,,,
AH,AHF2_1Y3O.4.5,F,AHF2_1Y3O,4,pred+/same,pred+/AH,pred+,AH,,2,10-May,NA,pred-,1,40,45,,,,,
AH,AHF2_1Y3O.5.6,F,AHF2_1Y3O,5,pred+/same,pred+/AH,pred+,AH,,1,3-Jun,4:26 PM,pred+,1,10,97,,,,,
AH,AHF2_1Y3O.5.6,F,AHF2_1Y3O,5,pred+/same,pred+/AH,pred+,AH,,2,4-Jun,4:05 PM,pred-,1,31,17,,,,,
AH,AHF2_1Y3O.5.7,F,AHF2_1Y3O,5,pred+/same,pred+/AH,pred+,AH,,1,3-Jun,4:12 PM,pred-,1,19,170,couldn't see bottom of tank well; could have missed a handful of bottom pecks ,,,,
AH,AHF2_1Y3O.5.7,F,AHF2_1Y3O,5,pred+/same,pred+/AH,pred+,AH,,2,4-Jun,3:44 PM,pred+,1,211,3,,,,,
AH,AHF2_1Y3O.6.11,F,AHF2_1Y3O,6,pred+/same,pred+/AH,pred+,AH,,1,28-Jun,2:17 PM,pred-,1,22,18,,,,,
AH,AHF2_1Y3O.6.11,F,AHF2_1Y3O,6,pred+/same,pred+/AH,pred+,AH,,2,29-Jun,4:16 PM,pred+,1,24,29,first peck at bottom; didn't eat 6/28,,,,
AH,AHF2_1Y3O.6.8,F,AHF2_1Y3O,6,pred+/same,pred+/AH,pred+,AH,,1,29-Jun,4:11 PM,pred+,2,145,25,,,,,
AH,AHF2_1Y3O.6.8,F,AHF2_1Y3O,6,pred+/same,pred+/AH,pred+,AH,,2,30-Jun,2:10 PM,pred-,1,20,34,"may have pecked a couple of tiems at bottombut couldn't see, spent most of time swimming up and down walls",,,,
AH,AHF2_1Y3O.6.9,F,AHF2_1Y3O,6,pred+/same,pred+/AH,pred+,AH,,1,28-Jun,2:23 PM,pred+,1,60,11,,,,,
AH,AHF2_1Y3O.6.9,F,AHF2_1Y3O,6,pred+/same,pred+/AH,pred+,AH,,2,29-Jun,3:38 PM,pred-,1,170,2,,,,,
AH,AHF2_1Y3O.7.3,F,AHF2_1Y3O,7,pred+/same,pred+/AH,pred+,AH,,1,24-Jul,3:30 PM,pred+,1,13,131,,,,,
AH,AHF2_1Y3O.7.3,F,AHF2_1Y3O,7,pred+/same,pred+/AH,pred+,AH,,2,25-Jul,3:38 PM,pred-,1,86,3,,,,,
AH,AHF2_1G4G.1.6,M,AHF2_1G4G,1,pred+/same,pred+/AH,pred+,AH,,1,26-Jan,2:28 PM,pred+,1,122,17,,,,,
AH,AHF2_1G4G.1.6,M,AHF2_1G4G,1,pred+/same,pred+/AH,pred+,AH,,2,27-Jan,3:30 PM,pred-,1,94,8,,,,,
AH,AHF2_1G4G.2.3,M,AHF2_1G4G,2,pred+/same,pred+/AH,pred+,AH,,1,27-Feb,3:44 PM,pred+,1,17,77,,,,,
AH,AHF2_1G4G.2.3,M,AHF2_1G4G,2,pred+/same,pred+/AH,pred+,AH,,2,28-Feb,3:28 PM,pred-,1,18,34,,,,,
AH,AHF2_1G4P.5.1,M,AHF2_1G4P,5,pred+/same,pred+/AH,pred+,AH,,1,15-May,3:47 PM,pred+,1,17,1,,,,,
AH,AHF2_1G4P.5.1,M,AHF2_1G4P,5,pred+/same,pred+/AH,pred+,AH,,2,16-May,9:35 PM,pred-,1,10,16,swimming frantically,,,,
AH,AHF2_1O3Y.2.5,M,AHF2_1O3Y,2,pred+/same,pred+/AH,pred+,AH,,1,17-May,3:30 PM,pred-,1,36,34,,,,,
AH,AHF2_1O3Y.2.5,M,AHF2_1O3Y,2,pred+/same,pred+/AH,pred+,AH,,2,18-May,3:09 PM,pred+,1,10,2,several gonopodium swings,,,,
AH,AHF2_1O3Y.4.2,M,AHF2_1O3Y,4,pred+/same,pred+/AH,pred+,AH,,1,3-Jul,2:09 PM,pred+,1,14,37,,,,,
AH,AHF2_1O3Y.4.2,M,AHF2_1O3Y,4,pred+/same,pred+/AH,pred+,AH,,2,4-Jul,3:31 PM,pred-,1,42,1,,,,,
AH,AHF2_1O3Y.4.3,M,AHF2_1O3Y,4,pred+/same,pred+/AH,pred+,AH,,1,3-Jul,2:49 PM,pred-,1,35,7,,,,,
AH,AHF2_1O3Y.4.3,M,AHF2_1O3Y,4,pred+/same,pred+/AH,pred+,AH,,2,4-Jul,2:27 PM,pred+,1,8,2,,,,,
AH,AHF2_1P3G.4.2,M,AHF2_1P3G,4,pred+/same,pred+/AH,pred+,AH,,1,2-Aug,4:44 PM,pred-,1,14,21,,,,,
AH,AHF2_1P3G.4.2,M,AHF2_1P3G,4,pred+/same,pred+/AH,pred+,AH,,2,3-Aug,2:50 PM,pred+,1,571,11,,,,,
AH,AHF2_1Y2G.2.1,M,AHF2_1Y2G,2,pred+/same,pred+/AH,pred+,AH,,1,9-Feb,3:15 PM,pred+,1,484,2,,,,,
AH,AHF2_1Y2G.2.1,M,AHF2_1Y2G,2,pred+/same,pred+/AH,pred+,AH,,2,10-Feb,3:15 PM,pred-,1,154,82,,,,,
AH,AHF2_1Y2G.3.10,M,AHF2_1Y2G,3,pred+/same,pred+/AH,pred+,AH,,1,13-Aug,4:07 PM,pred-,1,245,3,,,,,
AH,AHF2_1Y2G.3.10,M,AHF2_1Y2G,3,pred+/same,pred+/AH,pred+,AH,,2,14-Aug,4:02 PM,pred+,1,41,5, frantic swimming,,,,
AH,AHF2_1Y2G.3.9,M,AHF2_1Y2G,3,pred+/same,pred+/AH,pred+,AH,,1,13-Aug,3:10 PM,pred+,1,156,5,,,,,
AH,AHF2_1Y2G.3.9,M,AHF2_1Y2G,3,pred+/same,pred+/AH,pred+,AH,,2,14-Aug,3:01 PM,pred-,1,96,9,,,,,
AH,AHF2_1Y2P.5.1,M,AHF2_1Y2P,5,pred+/same,pred+/AH,pred+,AH,,1,18-Apr,3:20 PM,pred-,1,20,85,,,,,
AH,AHF2_1Y2P.5.1,M,AHF2_1Y2P,5,pred+/same,pred+/AH,pred+,AH,,2,19-Apr,3:22 PM,pred+,1,13,9,all at bottom,,,,
AH,AHF2_1Y3O.1.3,M,AHF2_1Y3O,1,pred+/same,pred+/AH,pred+,AH,,1,22-Jan,3:10 PM,pred-,1,25,34,,,,,
AH,AHF2_1Y3O.1.3,M,AHF2_1Y3O,1,pred+/same,pred+/AH,pred+,AH,,2,23-Jan,2:50 PM,pred+,1,148,34,,,,,
AH,AHF2_1Y3O.6.10,M,AHF2_1Y3O,6,pred+/same,pred+/AH,pred+,AH,,1,28-Jun,2:10 PM,pred-,1,50,19,,,,,
AH,AHF2_1Y3O.6.10,M,AHF2_1Y3O,6,pred+/same,pred+/AH,pred+,AH,,2,29-Jun,3:53 PM,pred+,1,555,13,,,,,
AH,AHF2_1G3G.3.1,F,AHF2_1G3G,3,pred+/dif,pred+/AL,pred+,AL,,1,25-Feb,4:17 PM,pred+,1,553,3,,,,,
AH,AHF2_1G3G.3.1,F,AHF2_1G3G,3,pred+/dif,pred+/AL,pred+,AL,,2,26-Feb,3:15 PM,pred-,1,283,4,pecks at the bottom,,,,
AH,AHF2_1G4G.1.5,F,AHF2_1G4G,1,pred+/dif,pred+/AL,pred+,AL,,1,26-Jan,2:35 PM,pred+,1,193,45,,,,,
AH,AHF2_1G4G.1.5,F,AHF2_1G4G,1,pred+/dif,pred+/AL,pred+,AL,,2,27-Jan,3:40 PM,pred-,1,128,8,,,,,
AH,AHF2_1G4G.6.9,F,AHF2_1G4G,6,pred+/dif,pred+/AL,pred+,AL,,1,29-Sep,3:35 PM,pred+,1,100,26,,,,,
AH,AHF2_1G4G.6.9,F,AHF2_1G4G,6,pred+/dif,pred+/AL,pred+,AL,,2,30-Sep,3:40 PM,pred-,1,22,34,,,,,
AH,AHF2_1G4O.5.1,F,AHF2_1G4O,5,pred+/dif,pred+/AL,pred+,AL,,1,10-May,5:14 PM,pred+,2,64,11,,,,,
AH,AHF2_1G4O.5.1,F,AHF2_1G4O,5,pred+/dif,pred+/AL,pred+,AL,,2,11-May,3:20 PM,pred-,1,157,5,"mirecorded as 1G4G.5.1, but actually 1G4O.5.1",,,,
AH,AHF2_1O3Y.2.6,F,AHF2_1O3Y,2,pred+/dif,pred+/AL,pred+,AL,,1,17-May,3:59 PM,pred+,1,24,53,,,,,
AH,AHF2_1O3Y.2.6,F,AHF2_1O3Y,2,pred+/dif,pred+/AL,pred+,AL,,2,18-May,3:45 PM,pred-,1,227,4,bottom,,,,
AH,AHF2_1O3Y.3.2,F,AHF2_1O3Y,3,pred+/dif,pred+/AL,pred+,AL,,1,10-Jun,3:25 PM,pred-,1,29,13,,,,,
AH,AHF2_1O3Y.3.2,F,AHF2_1O3Y,3,pred+/dif,pred+/AL,pred+,AL,,2,11-Jun,5:17 PM,pred+,1,14,42,at some at bottom,,,,
AH,AHF2_1O3Y.3.3,F,AHF2_1O3Y,3,pred+/dif,pred+/AL,pred+,AL,,1,10-Jun,3:18 PM,pred-,1,366,7,,,,,
AH,AHF2_1O3Y.3.3,F,AHF2_1O3Y,3,pred+/dif,pred+/AL,pred+,AL,,2,11-Jun,5:25 PM,pred+,1,22,48,,,,,
AH,AHF2_1O3Y.3.4,F,AHF2_1O3Y,3,pred+/dif,pred+/AL,pred+,AL,,1,10-Jun,3:35 PM,pred+,1,15,4,,,,,
AH,AHF2_1O3Y.3.4,F,AHF2_1O3Y,3,pred+/dif,pred+/AL,pred+,AL,,2,11-Jun,5:11 PM,pred-,1,561,1,,,,,
AH,AHF2_1O3Y.3.5,F,AHF2_1O3Y,3,pred+/dif,pred+/AL,pred+,AL,,1,10-Jun,3:51 PM,pred+,1,92,15,,,,,
AH,AHF2_1O3Y.3.5,F,AHF2_1O3Y,3,pred+/dif,pred+/AL,pred+,AL,,2,12-Jun,5:32 PM,pred-,2,164,5,,,,,
AH,AHF2_1O3Y.5.10,F,AHF2_1O3Y,5,pred+/dif,pred+/AL,pred+,AL,,1,29-Jul,3:08 PM,pred-,1,14,10,very active,,,,
AH,AHF2_1O3Y.5.10,F,AHF2_1O3Y,5,pred+/dif,pred+/AL,pred+,AL,,2,30-Jul,2:19 PM,pred+,1,20,10,,,,,
AH,AHF2_1O3Y.5.11,F,AHF2_1O3Y,5,pred+/dif,pred+/AL,pred+,AL,,1,29-Jul,3:13 PM,pred-,1,16,153,,,,,
AH,AHF2_1O3Y.5.11,F,AHF2_1O3Y,5,pred+/dif,pred+/AL,pred+,AL,,2,30-Jul,2:48 PM,pred+,1,30,115,,,,,
AH,AHF2_1O3Y.5.9,F,AHF2_1O3Y,5,pred+/dif,pred+/AL,pred+,AL,,1,29-Jul,3:17 PM,pred+,1,16,57,,,,,
AH,AHF2_1O3Y.5.9,F,AHF2_1O3Y,5,pred+/dif,pred+/AL,pred+,AL,,2,30-Jul,2:44 PM,pred-,1,10,26,,,,,
AH,AHF2_1Y2G.3.12,F,AHF2_1Y2G,3,pred+/dif,pred+/AL,pred+,AL,,1,14-Aug,3:23 PM,pred+,2,71,5,all at bottom; 8/13 didn't eat,,,,
AH,AHF2_1Y2G.3.12,F,AHF2_1Y2G,3,pred+/dif,pred+/AL,pred+,AL,,2,15-Aug,2:36 PM,pred-,1,123,12,all at bottom,,,,
AH,AHF2_1Y2G.3.13,F,AHF2_1Y2G,3,pred+/dif,pred+/AL,pred+,AL,,1,14-Aug,4:09 PM,pred-,2,55,34,8/13 maybe doing weird pecks moving to fast to discern ,,,,
AH,AHF2_1Y2G.3.13,F,AHF2_1Y2G,3,pred+/dif,pred+/AL,pred+,AL,,2,15-Aug,2:29 PM,pred+,1,21,86,all at bottom or middle of water column ,,,,
AH,AHF2_1Y2G.4.7,F,AHF2_1Y2G,4,pred+/dif,pred+/AL,pred+,AL,,1,8-Sep,2:43 PM,pred-,1,86,137,,,,,
AH,AHF2_1Y2G.4.7,F,AHF2_1Y2G,4,pred+/dif,pred+/AL,pred+,AL,,2,NA,NA,pred+,3,600,0,"didn't eat 9/9, 9/10, 9/11",,,,
AH,AHF2_1Y2G.4.8,F,AHF2_1Y2G,4,pred+/dif,pred+/AL,pred+,AL,24-Jul,1,8-Sep,2:31 PM,pred+,1,88,5,,,,,
AH,AHF2_1Y2G.4.8,F,AHF2_1Y2G,4,pred+/dif,pred+/AL,pred+,AL,24-Jul,2,9-Sep,3:44 PM,pred-,1,34,13,,,,,
AH,AHF2_1Y3O.2.5,F,AHF2_1Y3O,2,pred+/dif,pred+/AL,pred+,AL,,1,21-Feb,3:49 PM,pred+,1,148,77,,,,,
AH,AHF2_1Y3O.2.5,F,AHF2_1Y3O,2,pred+/dif,pred+/AL,pred+,AL,,2,22-Feb,2:44 PM,pred-,1,426,8,,,,,
AH,AHF2_1Y3O.6.14,F,AHF2_1Y3O,6,pred+/dif,pred+/AL,pred+,AL,,1,28-Jun,1:57 PM,pred-,1,132,65,,,,,
AH,AHF2_1Y3O.6.14,F,AHF2_1Y3O,6,pred+/dif,pred+/AL,pred+,AL,,2,29-Jun,4:21 PM,pred+,1,8,174,,,,,
AH,AHF2_1Y3O.7.5,F,AHF2_1Y3O,7,pred+/dif,pred+/AL,pred+,AL,,1,24-Jul,3:40 PM,pred+,1,151,204,"in the water column, then surface ",,,,
AH,AHF2_1Y3O.7.5,F,AHF2_1Y3O,7,pred+/dif,pred+/AL,pred+,AL,,2,25-Jul,3:32 PM,pred-,1,374,4,,,,,
AH,AHF2_1G4G.2.4,M,AHF2_1G4G,2,pred+/dif,pred+/AL,pred+,AL,,1,27-Feb,4:30 PM,pred-,1,57,8,,,,,
AH,AHF2_1G4G.2.4,M,AHF2_1G4G,2,pred+/dif,pred+/AL,pred+,AL,,2,28-Feb,2:56 PM,pred+,1,21,24,,,,,
AH,AHF2_1G4P.5.5,M,AHF2_1G4P,5,pred+/dif,pred+/AL,pred+,AL,,1,16-May,9:51 PM,pred-,2,20,27,,,,,
AH,AHF2_1G4P.5.5,M,AHF2_1G4P,5,pred+/dif,pred+/AL,pred+,AL,,2,17-May,2:35 PM,pred+,1,12,4,,,,,
AH,AHF2_1O3P.2.4,M,AHF2_1O3P,2,pred+/dif,pred+/AL,pred+,AL,,1,19-Feb,4:13 PM,pred+,1,4,25,,,,,
AH,AHF2_1O3P.2.4,M,AHF2_1O3P,2,pred+/dif,pred+/AL,pred+,AL,,2,20-Feb,3:25 PM,pred-,1,42,1,,,,,
AH,AHF2_1O3Y.1.4,M,AHF2_1O3Y,1,pred+/dif,pred+/AL,pred+,AL,,1,26-Apr,5:20 PM,pred-,1,80,14,some pecks at end on bottom,,,,
AH,AHF2_1O3Y.1.4,M,AHF2_1O3Y,1,pred+/dif,pred+/AL,pred+,AL,,2,27-Apr,3:02 PM,pred+,1,7,8,,,,,
AH,AHF2_1O3Y.3.1,M,AHF2_1O3Y,3,pred+/dif,pred+/AL,pred+,AL,,1,10-Jun,3:43 PM,pred+,1,432,4,,,,,
AH,AHF2_1O3Y.3.1,M,AHF2_1O3Y,3,pred+/dif,pred+/AL,pred+,AL,,2,11-Jun,4:55 PM,pred-,1,73,4,,,,,
AH,AHF2_1O3Y.4.5,M,AHF2_1O3Y,4,pred+/dif,pred+/AL,pred+,AL,,1,3-Jul,2:21 PM,pred-,1,43,10,,,,,
AH,AHF2_1O3Y.4.5,M,AHF2_1O3Y,4,pred+/dif,pred+/AL,pred+,AL,,2,4-Jul,2:17 PM,pred+,1,37,4,,,,,
AH,AHF2_1O3Y.5.8,M,AHF2_1O3Y,5,pred+/dif,pred+/AL,pred+,AL,,1,27-Jul,3:13 PM,pred+,1,212,7,,,,,
AH,AHF2_1O3Y.5.8,M,AHF2_1O3Y,5,pred+/dif,pred+/AL,pred+,AL,,2,28-Jul,3:37 PM,pred-,1,154,35,,,,,
AH,AHF2_1P3G.5.8,M,AHF2_1P3G,5,pred+/dif,pred+/AL,pred+,AL,,1,26-Aug,3:14 PM,pred-,1,25,7,,,,,
AH,AHF2_1P3G.5.8,M,AHF2_1P3G,5,pred+/dif,pred+/AL,pred+,AL,,2,27-Aug,3:08 PM,pred+,1,43,8,,,,,
AH,AHF2_1Y2P.2.2,M,AHF2_1Y2P,2,pred+/dif,pred+/AL,pred+,AL,,1,23-Jan,3:06 PM,pred+,1,14,102,,,,,
AH,AHF2_1Y2P.2.2,M,AHF2_1Y2P,2,pred+/dif,pred+/AL,pred+,AL,,2,24-Jan,3:45 PM,pred-,1,15,98,fed from bottom,,,,
AH,AHF2_1Y2P.5.2,M,AHF2_1Y2P,5,pred+/dif,pred+/AL,pred+,AL,,1,18-Apr,3:30 PM,pred+,1,281,4,,,,,
AH,AHF2_1Y2P.5.2,M,AHF2_1Y2P,5,pred+/dif,pred+/AL,pred+,AL,,2,19-Apr,3:40 PM,pred-,1,24,11,,,,,
AH,AHF2_1Y3O.3.5,M,AHF2_1Y3O,3,pred+/dif,pred+/AL,pred+,AL,,1,16-Apr,6:01 PM,pred-,1,108,25,first 3 pecks at bottom,,,,
AH,AHF2_1Y3O.3.5,M,AHF2_1Y3O,3,pred+/dif,pred+/AL,pred+,AL,,2,17-Apr,4:20 PM,pred+,1,32,49,almost all at bottom,,,,
AH,AHF2_1Y3O.5.8,M,AHF2_1Y3O,5,pred+/dif,pred+/AL,pred+,AL,,1,3-Jun,4:18 PM,pred-,1,99,23,,,,,
AH,AHF2_1Y3O.5.8,M,AHF2_1Y3O,5,pred+/dif,pred+/AL,pred+,AL,,2,4-Jun,3:58 PM,pred+,1,119,4,*Haven't found this data sheet,,,,
AH,AHF2_1Y3O.6.13,M,AHF2_1Y3O,6,pred+/dif,pred+/AL,pred+,AL,,1,28-Jun,2:04 PM,pred+,1,112,15,,,,,
AH,AHF2_1Y3O.6.13,M,AHF2_1Y3O,6,pred+/dif,pred+/AL,pred+,AL,,2,29-Jun,3:30 PM,pred-,1,39,45,,,,,
AH,AHF2_1Y3O.7.4,M,AHF2_1Y3O,7,pred+/dif,pred+/AL,pred+,AL,,1,24-Jul,3:44 PM,pred+,1,22,176,,,,,
AH,AHF2_1Y3O.7.4,M,AHF2_1Y3O,7,pred+/dif,pred+/AL,pred+,AL,,2,25-Jul,3:48 PM,pred-,1,18,4,,,,,
AL,ALF2_1G3Y.3.2,F,ALF2_1G3Y,3,pred-/dif,pred-/AH,pred-,AH,,1,22-Apr,3:51 PM,pred-,1,149,8,,,,,
AL,ALF2_1G3Y.3.2,F,ALF2_1G3Y,3,pred-/dif,pred-/AH,pred-,AH,,2,24-Apr,2:30 PM,pred+,2,40,26,,,,,
AL,ALF2_1O2G.2.2,F,ALF2_1O2G,2,pred-/dif,pred-/AH,pred-,AH,,1,15-Apr,5:30 PM,pred+,1,433,1,latency to feed was on a fally flake,,,,
AL,ALF2_1O2G.2.2,F,ALF2_1O2G,2,pred-/dif,pred-/AH,pred-,AH,,2,16-Apr,5:37 PM,pred-,1,480,3,,,,,
AL,ALF2_1O2G.3.2,F,ALF2_1O2G,3,pred-/dif,pred-/AH,pred-,AH,,1,12-May,5:06 PM,pred-,1,97,40,,,,,
AL,ALF2_1O2G.3.2,F,ALF2_1O2G,3,pred-/dif,pred-/AH,pred-,AH,,2,13-May,5:25 PM,pred+,1,28,16,,,,,
AL,ALF2_1O2G.4.3,F,ALF2_1O2G,4,pred-/dif,pred-/AH,pred-,AH,,1,8-Jun,4:15 PM,pred-,1,82,8,,,,,
AL,ALF2_1O2G.4.3,F,ALF2_1O2G,4,pred-/dif,pred-/AH,pred-,AH,,2,10-Jun,3:05 PM,pred+,2,357,1,,,,,
AL,ALF2_1O2G.6.2,F,ALF2_1O2G,6,pred-/dif,pred-/AH,pred-,AH,,1,18-Sep,2:35 PM,pred+,1,50,2,,,,,
AL,ALF2_1O2G.6.2,F,ALF2_1O2G,6,pred-/dif,pred-/AH,pred-,AH,,2,19-Sep,4:06 PM,pred-,1,25,38,,,,,
AL,ALF2_1O2O.2.4,F,ALF2_1O2O,2,pred-/dif,pred-/AH,pred-,AH,,1,29-Jul,2:25 PM,pred-,1,134,9,,,,,
AL,ALF2_1O2O.2.4,F,ALF2_1O2O,2,pred-/dif,pred-/AH,pred-,AH,,2,30-Jul,3:21 PM,pred+,1,479,1,,,,,
AL,ALF2_1O2O.3.3,F,ALF2_1O2O,3,pred-/dif,pred-/AH,pred-,AH,,1,22-Aug,NA,pred-,3,600,0,didn't eat 3x,,,,
AL,ALF2_1O2O.3.3,F,ALF2_1O2O,3,pred-/dif,pred-/AH,pred-,AH,,2,NA,NA,pred+,NA,NA,NA,not tested,,,,
AL,ALF2_1O3O.3.2,F,ALF2_1O3O,3,pred-/dif,pred-/AH,pred-,AH,,1,22-Apr,3:41 PM,pred-,1,58,2,pecked at the bottom,,,,
AL,ALF2_1O3O.3.2,F,ALF2_1O3O,3,pred-/dif,pred-/AH,pred-,AH,,2,24-Apr,2:30 PM,pred+,2,148,4,,,,,
AL,ALF2_1O3Y.3.5,F,ALF2_1O3Y,3,pred-/dif,pred-/AH,pred-,AH,,1,17-Aug,1:56 PM,pred-,1,120,12,"all pecks in middle of water column; was pecking against glass a little before 2  minutes, but wasn't sure so didn't count yet",,,,
AL,ALF2_1O3Y.3.5,F,ALF2_1O3Y,3,pred-/dif,pred-/AH,pred-,AH,,2,18-Aug,3:26 PM,pred+,1,62,6,same as yesterday pecking at glass in middel of water column ,,,,
AL,ALF2_1O3Y.3.6,F,ALF2_1O3Y,3,pred-/dif,pred-/AH,pred-,AH,,1,17-Aug,2:49 PM,pred-,1,290,1,,,,,
AL,ALF2_1O3Y.3.6,F,ALF2_1O3Y,3,pred-/dif,pred-/AH,pred-,AH,,2,19-Aug,3:50 PM,pred+,2,123,2,,,,,
AL,ALF2_1P2Y.2.4,F,ALF2_1P2Y,2,pred-/dif,pred-/AH,pred-,AH,,1,15-Aug,NA,pred+,3,600,0,didn't eat 3x,,,,
AL,ALF2_1P2Y.2.4,F,ALF2_1P2Y,2,pred-/dif,pred-/AH,pred-,AH,,2,NA,NA,pred-,NA,NA,NA,not tested,,,,
AL,ALF2_1P2Y.3.2,F,ALF2_1P2Y,3,pred-/dif,pred-/AH,pred-,AH,,1,14-Sep,3:10 PM,pred-,1,161,1,,,,,
AL,ALF2_1P2Y.3.2,F,ALF2_1P2Y,3,pred-/dif,pred-/AH,pred-,AH,,2,15-Sep,3:42 PM,pred+,1,99,12,,,,,
AL,ALF2_1P3G.4.4,F,ALF2_1P3G,4,pred-/dif,pred-/AH,pred-,AH,,1,10-Jun,NA,pred+,3,600,0,didn't eat 3x,,,,
AL,ALF2_1P3G.4.4,F,ALF2_1P3G,4,pred-/dif,pred-/AH,pred-,AH,,1,NA,,NA,NA,NA,NA,didn't eat,,,,
AL,ALF2_1P3G.5.1,F,ALF2_1P3G,5,pred-/dif,pred-/AH,pred-,AH,,1,30-Jun,2:24 PM,pred-,1,25,48,,,,,
AL,ALF2_1P3G.5.1,F,ALF2_1P3G,5,pred-/dif,pred-/AH,pred-,AH,,2,1-Jul,2:58 PM,pred+,1,54,11,,,,,
AL,ALF2_1P4G.2.3,F,ALF2_1P4G,2,pred-/dif,pred-/AH,pred-,AH,13-Jul,1,29-Aug,4:35 PM,pred+,2,74,6,,,,,
AL,ALF2_1P4G.2.3,F,ALF2_1P4G,2,pred-/dif,pred-/AH,pred-,AH,13-Jul,2,30-Aug,4:50 PM,pred-,1,99,5,didn't eat 8/28,,,,
AL,ALF2_1P4O.3.1,F,ALF2_1P4O,3,pred-/dif,pred-/AH,pred-,AH,,1,12-May,NA,pred+,1,104,9,,,,,
AL,ALF2_1P4O.3.1,F,ALF2_1P4O,3,pred-/dif,pred-/AH,pred-,AH,,2,13-May,5:30 PM,pred-,1,54,10,,,,,
AL,ALF2_1P4O.7.2,F,ALF2_1P4O,7,pred-/dif,pred-/AH,pred-,AH,,1,28-Sep,3:00 PM,pred+,1,195,2,,,,,
AL,ALF2_1P4O.7.2,F,ALF2_1P4O,7,pred-/dif,pred-/AH,pred-,AH,,2,29-Sep,3:46 PM,pred-,1,128,14,middle and bottom,,,,
AL,ALF2_1P4P.2.2,F,ALF2_1P4P,2,pred-/dif,pred-/AH,pred-,AH,,1,28-Feb,3:51 PM,pred-,1,141,24,,,,,
AL,ALF2_1P4P.2.2,F,ALF2_1P4P,2,pred-/dif,pred-/AH,pred-,AH,,2,1-Mar,3:24 PM,pred+,1,19,70,,,,,
AL,ALF2_3G4G.2.2,F,ALF2_3G4G,2,pred-/dif,pred-/AH,pred-,AH,,1,9-Apr,5:07 PM,pred-,1,390,11,,,,,
AL,ALF2_3G4G.2.2,F,ALF2_3G4G,2,pred-/dif,pred-/AH,pred-,AH,,2,10-Apr,5:12 PM,pred+,1,550,1,,,,,
AL,ALF2_3G4G.3.3,F,ALF2_3G4G,3,pred-/dif,pred-/AH,pred-,AH,,1,5-May,,pred+,2,247,4,,,,,
AL,ALF2_3G4G.3.3,F,ALF2_3G4G,3,pred-/dif,pred-/AH,pred-,AH,,2,6-May,,pred-,1,47,3,,,,,
AL,ALF2_1G3O.2.2,M,ALF2_1G3O,2,pred-/dif,pred-/AH,pred-,AH,16-Jul,1,2-Sep,3:16 PM,pred+,3,146,1,,,,,
AL,ALF2_1G3O.2.2,M,ALF2_1G3O,2,pred-/dif,pred-/AH,pred-,AH,16-Jul,2,3-Sep,1:06 PM,pred-,1,19,16,refer to data sheet for why ran at 1:06 pm ,,,,
AL,ALF2_1G3P.4.2,M,ALF2_1G3P,4,pred-/dif,pred-/AH,pred-,AH,,1,4-Apr,3:40 PM,pred+,4,18,4,,,,,
AL,ALF2_1G3P.4.2,M,ALF2_1G3P,4,pred-/dif,pred-/AH,pred-,AH,,2,5-Apr,3:55 PM,pred-,1,192,4,,,,,
AL,ALF2_1G3P.5.1,M,ALF2_1G3P,5,pred-/dif,pred-/AH,pred-,AH,,1,24-Apr,3:35 PM,pred+,1,131,111,,,,,
AL,ALF2_1G3P.5.1,M,ALF2_1G3P,5,pred-/dif,pred-/AH,pred-,AH,,2,25-Apr,3:23 PM,pred-,1,31,61,,,,,
AL,ALF2_1G3Y.2.2,M,ALF2_1G3Y,2,pred-/dif,pred-/AH,pred-,AH,,1,27-Mar,3:25 PM,pred+,1,168,59,,,,,
AL,ALF2_1G3Y.2.2,M,ALF2_1G3Y,2,pred-/dif,pred-/AH,pred-,AH,,2,28-Mar,3:50 PM,pred-,1,60,29,,,,,
AL,ALF2_1O2O.1.1,M,ALF2_1O2O,1,pred-/dif,pred-/AH,pred-,AH,,1,24-Mar,4:50 PM,pred-,1,224,5,,,,,
AL,ALF2_1O2O.1.1,M,ALF2_1O2O,1,pred-/dif,pred-/AH,pred-,AH,,2,25-Mar,4:53 PM,pred+,1,94,2,,,,,
AL,ALF2_1O2O.3.4,M,ALF2_1O2O,3,pred-/dif,pred-/AH,pred-,AH,,1,20-Aug,4:21 PM,pred+,1,64,1,,,,,
AL,ALF2_1O2O.3.4,M,ALF2_1O2O,3,pred-/dif,pred-/AH,pred-,AH,,2,21-Aug,4:33 PM,pred-,1,271,31,,,,,
AL,ALF2_1O3O.2.2,M,ALF2_1O3O,2,pred-/dif,pred-/AH,pred-,AH,,1,29-Mar,3:20 PM,pred-,1,108,29,,,,,
AL,ALF2_1O3O.2.2,M,ALF2_1O3O,2,pred-/dif,pred-/AH,pred-,AH,,2,30-Mar,4:00 PM,pred+,1,290,2,,,,,
AL,ALF2_1O3Y.3.7,M,ALF2_1O3Y,3,pred-/dif,pred-/AH,pred-,AH,,1,19-Aug,NA,pred+,3,600,0,didn't eat 3x,,,,
AL,ALF2_1O3Y.3.7,M,ALF2_1O3Y,3,pred-/dif,pred-/AH,pred-,AH,,2,NA,NA,pred-,NA,NA,NA,not tested,,,,
AL,ALF2_1O3Y.4.2,M,ALF2_1O3Y,4,pred-/dif,pred-/AH,pred-,AH,,1,20-Sep,5:01 PM,pred-,3,326,3,"didn't eat 9/18, 9/19",,,,
AL,ALF2_1O3Y.4.2,M,ALF2_1O3Y,4,pred-/dif,pred-/AH,pred-,AH,,2,21-Sep,3:00 PM,pred+,1,112,5,,,,,
AL,ALF2_1P3G.5.2,M,ALF2_1P3G,5,pred-/dif,pred-/AH,pred-,AH,,1,1-Jul,3:11 PM,pred+,2,542,1,didn't eat 6/30,,,,
AL,ALF2_1P3G.5.2,M,ALF2_1P3G,5,pred-/dif,pred-/AH,pred-,AH,,2,2-Jul,4:13 PM,pred-,1,419,1,,,,,
AL,ALF2_1P4G.3.2,M,ALF2_1P4G,3,pred-/dif,pred-/AH,pred-,AH,,1,24-Sep,1:25 PM,pred+,1,126,44,,,,,
AL,ALF2_1P4G.3.2,M,ALF2_1P4G,3,pred-/dif,pred-/AH,pred-,AH,,2,25-Sep,2:30 PM,pred-,1,136,23,,,,,
AL,ALF2_1P4O.1.2,M,ALF2_1P4O,1,pred-/dif,pred-/AH,pred-,AH,,1,12-Feb,3:03 PM,pred-,1,66,54,,,,,
AL,ALF2_1P4O.1.2,M,ALF2_1P4O,1,pred-/dif,pred-/AH,pred-,AH,,2,13-Feb,3:05 PM,pred+,1,578,2,,,,,
AL,ALF2_1P4O.4.1,M,ALF2_1P4O,4,pred-/dif,pred-/AH,pred-,AH,,1,5-Jun,2:28 PM,pred-,1,50,10,,,,,
AL,ALF2_1P4O.4.1,M,ALF2_1P4O,4,pred-/dif,pred-/AH,pred-,AH,,2,6-Jun,5:30 PM,pred+,1,10,14,,,,,
AL,ALF2_1P4O.4.2,M,ALF2_1P4O,4,pred-/dif,pred-/AH,pred-,AH,,1,5-Jun,2:00 PM,pred+,1,214,1,,,,,
AL,ALF2_1P4O.4.2,M,ALF2_1P4O,4,pred-/dif,pred-/AH,pred-,AH,,2,6-Jun,5:55 PM,pred-,1,94,10,,,,,
AL,ALF2_1P4O.5.1,M,ALF2_1P4O,5,pred-/dif,pred-/AH,pred-,AH,,1,3-Jul,3:31 PM,pred-,1,14,16,all at bottom,,,,
AL,ALF2_1P4O.5.1,M,ALF2_1P4O,5,pred-/dif,pred-/AH,pred-,AH,,2,4-Jul,2:40 PM,pred+,1,88,4,,,,,
AL,ALF2_1P4O.6.4,M,ALF2_1P4O,6,pred-/dif,pred-/AH,pred-,AH,,1,27-Aug,3:43 PM,pred-,1,36,2,,,,,
AL,ALF2_1P4O.6.4,M,ALF2_1P4O,6,pred-/dif,pred-/AH,pred-,AH,,2,29-Aug,4:13 PM,pred+,2,64,6,didn't eat 8/28,,,,
AL,ALF2_1P4O.6.5,M,ALF2_1P4O,6,pred-/dif,pred-/AH,pred-,AH,,1,27-Aug,3:34 PM,pred+,1,86,1,,,,,
AL,ALF2_1P4O.6.5,M,ALF2_1P4O,6,pred-/dif,pred-/AH,pred-,AH,,2,29-Aug,4:08 PM,pred-,2,100,5,,,,,
AL,ALF2_1P4P.4.2,M,ALF2_1P4P,4,pred-/dif,pred-/AH,pred-,AH,,1,19-Apr,3:44 PM,pred-,1,315,11,so gentle ,,,,
AL,ALF2_1P4P.4.2,M,ALF2_1P4P,4,pred-/dif,pred-/AH,pred-,AH,,2,20-Apr,5:00 PM,pred+,1,122,1,,,,,
AL,ALF2_3G4G.1.1,M,ALF2_3G4G,1,pred-/dif,pred-/AH,pred-,AH,,1,11-Mar,4:50 PM,pred+,1,492,4,,,,,
AL,ALF2_3G4G.1.1,M,ALF2_3G4G,1,pred-/dif,pred-/AH,pred-,AH,,2,12-Mar,3:50 PM,pred-,1,260,1,,,,,
AL,ALF2_3G4G.2.3,M,ALF2_3G4G,2,pred-/dif,pred-/AH,pred-,AH,,1,10-Apr,5:27 PM,pred+,2,275,12,didn't eat 4/9,,,,
AL,ALF2_3G4G.2.3,M,ALF2_3G4G,2,pred-/dif,pred-/AH,pred-,AH,,2,11-Apr,5:04 PM,pred-,1,9,14,,,,,
AL,ALF2_3G4G.3.2,M,ALF2_3G4G,3,pred-/dif,pred-/AH,pred-,AH,,1,4-May,5:11 PM,pred-,1,46,5,,,,,
AL,ALF2_3G4G.3.2,M,ALF2_3G4G,3,pred-/dif,pred-/AH,pred-,AH,,2,5-May,NA,pred+,1,294,1,,,,,
AL,ALF2_3G4G.4.3,M,ALF2_3G4G,4,pred-/dif,pred-/AH,pred-,AH,,1,2-Jun,2:40 PM,pred+,3,321,3,,,,,
AL,ALF2_3G4G.4.3,M,ALF2_3G4G,4,pred-/dif,pred-/AH,pred-,AH,,2,3-Jun,4:35 PM,pred-,1,8,7,,,,,
AL,ALF2_1G3Y.1.1,F,ALF2_1G3Y,1,pred-/same,pred-/AL,pred-,AL,,1,27-Feb,4:02 PM,pred+,2,467,5,,,,,
AL,ALF2_1G3Y.1.1,F,ALF2_1G3Y,1,pred-/same,pred-/AL,pred-,AL,,2,1-Mar,3:20 PM,pred-,2,39,2,,,,,
AL,ALF2_1O2G.4.1,F,ALF2_1O2G,4,pred-/same,pred-/AL,pred-,AL,,1,9-Jun,2:36 PM,pred+,2,308,1,,,,,
AL,ALF2_1O2G.4.1,F,ALF2_1O2G,4,pred-/same,pred-/AL,pred-,AL,,2,10-Jun,2:54 PM,pred-,1,201,1,,,,,
AL,ALF2_1O2G.6.1,F,ALF2_1O2G,6,pred-/same,pred-/AL,pred-,AL,,1,18-Sep,2:30 PM,pred-,1,247,10,ate at bottom of tank,,,,
AL,ALF2_1O2G.6.1,F,ALF2_1O2G,6,pred-/same,pred-/AL,pred-,AL,,2,19-Sep,4:01 PM,pred+,1,173,35,,,,,
AL,ALF2_1O2O.2.1,F,ALF2_1O2O,2,pred-/same,pred-/AL,pred-,AL,,1,29-Jul,2:39 PM,pred-,1,480,2,"all at bottom; may have missed some because was behind bottom rim; 7/29 not very active, sitting at bottom of tank then frantically swamn around bottom",,,,
AL,ALF2_1O2O.2.1,F,ALF2_1O2O,2,pred-/same,pred-/AL,pred-,AL,,2,1-Aug,2:00 PM,pred+,3,96,10,7/30 - idn't eat; 7/31 didn't eat,,,,
AL,ALF2_1O2O.3.1,F,ALF2_1O2O,3,pred-/same,pred-/AL,pred-,AL,,1,20-Aug,4:35 PM,pred+,1,293,5,,,,,
AL,ALF2_1O2O.3.1,F,ALF2_1O2O,3,pred-/same,pred-/AL,pred-,AL,,2,21-Aug,4:41 PM,pred-,1,188,6,,,,,
AL,ALF2_1O3O.4.3,F,ALF2_1O3O,4,pred-/same,pred-/AL,pred-,AL,,2,20-May,5:00 PM,pred+,1,50,1,,,,,
AL,ALF2_1O3O.4.3,F,ALF2_1O3O,4,pred-/same,pred-/AL,pred-,AL,,1,19-May,3:00 PM,pred-,1,12,64,top,,,,
AL,ALF2_1O3Y.2.1,F,ALF2_1O3Y,2,pred-/same,pred-/AL,pred-,AL,,1,12-Mar,4:02 PM,pred-,1,452,24,,,,,
AL,ALF2_1O3Y.2.1,F,ALF2_1O3Y,2,pred-/same,pred-/AL,pred-,AL,,2,14-Mar,3:25 PM,pred+,2,262,8,,,,,
AL,ALF2_1O3Y.3.1,F,ALF2_1O3Y,3,pred-/same,pred-/AL,pred-,AL,2-Jul,1,18-Aug,3:33 PM,pred-,2,144,6,didn't eat 8/17,,,,
AL,ALF2_1O3Y.3.1,F,ALF2_1O3Y,3,pred-/same,pred-/AL,pred-,AL,2-Jul,2,19-Aug,3:15 PM,pred+,1,572,6,,,,,
AL,ALF2_1O3Y.3.2,F,ALF2_1O3Y,3,pred-/same,pred-/AL,pred-,AL,,1,17-Aug,3:58 PM,pred+,1,53,5,,,,,
AL,ALF2_1O3Y.3.2,F,ALF2_1O3Y,3,pred-/same,pred-/AL,pred-,AL,,2,18-Aug,3:19 PM,pred-,1,172,15,,,,,
AL,ALF2_1O3Y.3.3,F,ALF2_1O3Y,3,pred-/same,pred-/AL,pred-,AL,2-Jul,1,18-Aug,2:02 PM,pred+,2,45,4,"didn't eat 8/17; 8/18 while running another trial, was pecking",,,,
AL,ALF2_1O3Y.3.3,F,ALF2_1O3Y,3,pred-/same,pred-/AL,pred-,AL,2-Jul,2,19-Aug,3:40 PM,pred-,1,339,5,,,,,
AL,ALF2_1O3Y.3.4,F,ALF2_1O3Y,3,pred-/same,pred-/AL,pred-,AL,,1,17-Aug,4:07 PM,pred-,1,145,6,,,,,
AL,ALF2_1O3Y.3.4,F,ALF2_1O3Y,3,pred-/same,pred-/AL,pred-,AL,,2,18-Aug,3:00 PM,pred+,1,322,1,,,,,
AL,ALF2_1P4G.2.1,F,ALF2_1P4G,2,pred-/same,pred-/AL,pred-,AL,13-Jul,1,28-Aug,4:12 PM,pred+,1,436,14,didn't eat 8/29,,,,
AL,ALF2_1P4G.2.1,F,ALF2_1P4G,2,pred-/same,pred-/AL,pred-,AL,13-Jul,2,30-Aug,4:55 PM,pred-,2,74,23,,,,,
AL,ALF2_1P4O.6.1,F,ALF2_1P4O,6,pred-/same,pred-/AL,pred-,AL,12-Jul,1,27-Aug,3:29 PM,pred+,1,132,2,,,,,
AL,ALF2_1P4O.6.1,F,ALF2_1P4O,6,pred-/same,pred-/AL,pred-,AL,12-Jul,2,29-Aug,4:02 PM,pred-,2,325,5,didn't eat 8/28,,,,
AL,ALF2_1P4O.6.3,F,ALF2_1P4O,6,pred-/same,pred-/AL,pred-,AL,12-Jul,1,27-Aug,3:49 PM,pred-,1,80,59,,,,,
AL,ALF2_1P4O.6.3,F,ALF2_1P4O,6,pred-/same,pred-/AL,pred-,AL,12-Jul,2,28-Aug,3:11 PM,pred+,1,474,14,,,,,
AL,ALF2_1P4P.4.1,F,ALF2_1P4P,4,pred-/same,pred-/AL,pred-,AL,,1,19-Apr,3:44 PM,pred-,1,31,21,,,,,
AL,ALF2_1P4P.4.1,F,ALF2_1P4P,4,pred-/same,pred-/AL,pred-,AL,,2,20-Apr,4:50 PM,pred-,1,94,4,,,,,
AL,ALF2_1P4P.5.1,F,ALF2_1P4P,5,pred-/same,pred-/AL,pred-,AL,,1,16-May,10:14 AM,pred-,2,89,9,didn't eat 5/15,,,,
AL,ALF2_1P4P.5.1,F,ALF2_1P4P,5,pred-/same,pred-/AL,pred-,AL,,2,18-May,2:45 PM,pred+,2,395,1,didn't eat 5/17,,,,
AL,ALF2_3G4G.2.1,F,ALF2_3G4G,2,pred-/same,pred-/AL,pred-,AL,,1,9-Apr,5:29 PM,pred-,1,262,7,,,,,
AL,ALF2_3G4G.2.1,F,ALF2_3G4G,2,pred-/same,pred-/AL,pred-,AL,,2,10-Apr,5:35 PM,pred+,1,22,1,,,,,
AL,ALF2_1G3P.2.1,M,ALF2_1G3P,2,pred-/same,pred-/AL,pred-,AL,,1,7-Feb,4:12 PM,pred+,2,600,0,didn't eat,,,,
AL,ALF2_1G3P.2.1,M,ALF2_1G3P,2,pred-/same,pred-/AL,pred-,AL,,2,8-Feb,3:48 PM,pred-,1,80,9,,,,,
AL,ALF2_1G3Y.3.1,M,ALF2_1G3Y,3,pred-/same,pred-/AL,pred-,AL,,1,22-Apr,3:46 PM,pred-,1,42,15,,,,,
AL,ALF2_1G3Y.3.1,M,ALF2_1G3Y,3,pred-/same,pred-/AL,pred-,AL,,2,24-Apr,2:50 AM,pred+,2,435,35,,,,,
AL,ALF2_1O2G.1.2,M,ALF2_1O2G,1,pred-/same,pred-/AL,pred-,AL,,1,10-Mar,3:48 PM,pred+,1,55,85,,,,,
AL,ALF2_1O2G.1.2,M,ALF2_1O2G,1,pred-/same,pred-/AL,pred-,AL,,2,11-Mar,4:33 PM,pred-,1,105,14,,,,,
AL,ALF2_1O2G.2.1,M,ALF2_1O2G,2,pred-/same,pred-/AL,pred-,AL,,1,17-Apr,4:30 PM,pred+,3,217,9,,,,,
AL,ALF2_1O2G.2.1,M,ALF2_1O2G,2,pred-/same,pred-/AL,pred-,AL,,2,18-Apr,NA,pred-,1,215,3,,,,,
AL,ALF2_1O2G.4.2,M,ALF2_1O2G,4,pred-/same,pred-/AL,pred-,AL,,1,8-Jun,3:55 PM,pred-,1,136,1,,,,,
AL,ALF2_1O2G.4.2,M,ALF2_1O2G,4,pred-/same,pred-/AL,pred-,AL,,2,9-Jun,2:18 PM,pred+,1,69,1,,,,,
AL,ALF2_1O2O.2.3,M,ALF2_1O2O,2,pred-/same,pred-/AL,pred-,AL,10-Jun,1,29-Jul,4:00 PM,pred-,3,271,10,didn't eat 7/27 very still at top of tank; didn't eat 7/28 more active swimming,,,,
AL,ALF2_1O2O.2.3,M,ALF2_1O2O,2,pred-/same,pred-/AL,pred-,AL,10-Jun,2,30-Jul,2:24 PM,pred+,1,33,24,spooked when added food very active ,,,,
AL,ALF2_1O2O.3.2,M,ALF2_1O2O,3,pred-/same,pred-/AL,pred-,AL,,1,20-Aug,3:38 PM,pred-,1,493,3,,,,,
AL,ALF2_1O2O.3.2,M,ALF2_1O2O,3,pred-/same,pred-/AL,pred-,AL,,2,21-Aug,3:59 PM,pred+,1,71,52,watched pecking while running assay before; most at bottom last few at top,,,,
AL,ALF2_1O3O.2.1,M,ALF2_1O3O,2,pred-/same,pred-/AL,pred-,AL,,1,29-Mar,3:30 PM,pred+,1,102,23,,,,,
AL,ALF2_1O3O.2.1,M,ALF2_1O3O,2,pred-/same,pred-/AL,pred-,AL,,2,2-Apr,3:50 PM,pred-,4,520,8,,,,,
AL,ALF2_1O3O.3.1,M,ALF2_1O3O,3,pred-/same,pred-/AL,pred-,AL,,1,22-Apr,3:58 PM,pred-,1,159,39,,,,,
AL,ALF2_1O3O.3.1,M,ALF2_1O3O,3,pred-/same,pred-/AL,pred-,AL,,2,24-Apr,NA,pred+,2,10,36,,,,,
AL,ALF2_1O3O.4.2,M,ALF2_1O3O,4,pred-/same,pred-/AL,pred-,AL,,1,19-May,2:55 PM,pred+,1,42,13,top,,,,
AL,ALF2_1O3O.4.2,M,ALF2_1O3O,4,pred-/same,pred-/AL,pred-,AL,,2,20-May,5:13 PM,pred-,1,98,7,top and bottom,,,,
AL,ALF2_1P2Y.3.1,M,ALF2_1P2Y,3,pred-/same,pred-/AL,pred-,AL,,1,14-Sep,3:20 PM,pred+,1,544,6,,,,,
AL,ALF2_1P2Y.3.1,M,ALF2_1P2Y,3,pred-/same,pred-/AL,pred-,AL,,2,15-Sep,4:06 PM,pred-,1,16,7,,,,,
AL,ALF2_1P3G.3.1,M,ALF2_1P3G,3,pred-/same,pred-/AL,pred-,AL,,1,11-May,3:30 PM,pred+,3,156,1,,,,,
AL,ALF2_1P3G.3.1,M,ALF2_1P3G,3,pred-/same,pred-/AL,pred-,AL,,2,12-May,4:45 PM,pred-,1,66,4,,,,,
AL,ALF2_1P3G.4.1,M,ALF2_1P3G,4,pred-/same,pred-/AL,pred-,AL,,1,8-Jun,3:50 PM,pred-,1,132,2,,,,,
AL,ALF2_1P3G.4.1,M,ALF2_1P3G,4,pred-/same,pred-/AL,pred-,AL,,2,9-Jun,NA,pred+,1,53,1,,,,,
AL,ALF2_1P4G.2.2,M,ALF2_1P4G,2,pred-/same,pred-/AL,pred-,AL,13-Jul,1,28-Aug,3:43 PM,pred-,1,49,36,first peck in middle,,,,
AL,ALF2_1P4G.2.2,M,ALF2_1P4G,2,pred-/same,pred-/AL,pred-,AL,13-Jul,2,29-Aug,4:30 PM,pred+,1,22,46,first peck in middle,,,,
AL,ALF2_1P4P.3.1,M,ALF2_1P4P,3,pred-/same,pred-/AL,pred-,AL,,1,24-Mar,4:59 PM,pred-,1,119,46,,,,,
AL,ALF2_1P4P.3.1,M,ALF2_1P4P,3,pred-/same,pred-/AL,pred-,AL,,2,25-Mar,4:59 PM,pred+,1,313,57,,,,,
AL,ALF2_3G4G.3.1,M,ALF2_3G4G,3,pred-/same,pred-/AL,pred-,AL,,1,4-May,4:46 PM,pred+,1,147,14,,,,,
AL,ALF2_3G4G.3.1,M,ALF2_3G4G,3,pred-/same,pred-/AL,pred-,AL,,2,5-May,8:43 PM,pred-,1,117,4,,,,,
AL,ALF2_3G4G.4.1,M,ALF2_3G4G,4,pred-/same,pred-/AL,pred-,AL,,1,31-May,2:28 PM,pred-,1,246,1,,,,,
AL,ALF2_3G4G.4.1,M,ALF2_3G4G,4,pred-/same,pred-/AL,pred-,AL,,2,1-Jun,5:47 PM,pred+,1,99,8,,,,,
AL,ALF2_3G4G.4.2,M,ALF2_3G4G,4,pred-/same,pred-/AL,pred-,AL,,1,1-Jun,5:53 PM,pred+,2,26,19,,,,,
AL,ALF2_3G4G.4.2,M,ALF2_3G4G,4,pred-/same,pred-/AL,pred-,AL,,2,2-Jun,2:50 PM,pred-,1,221,1,,,,,
AL,ALF2_1P4O.7.1,M,ALF2_1P4O,7,pred-/same,pred-/AL,pred-,AL,,1,28-Sep,3:15 PM,pred+,1,75,5,,,,,
AL,ALF2_1P4O.7.1,M,ALF2_1P4O,7,pred-/same,pred-/AL,pred-,AL,,2,29-Sep,3:50 PM,pred-,1,10,1,,,,,
AL,ALF2_1G3Y.1.2,F,ALF2_1G3Y,1,pred+/dif,pred+/AH,pred+,AH,,1,28-Feb,3:38 PM,pred-,1,292,1,,,,,
AL,ALF2_1G3Y.1.2,F,ALF2_1G3Y,1,pred+/dif,pred+/AH,pred+,AH,,2,1-Mar,3:07 PM,pred+,1,450,2,,,,,
AL,ALF2_1G3Y.3.6,F,ALF2_1G3Y,3,pred+/dif,pred+/AH,pred+,AH,,1,22-Apr,3:30 PM,pred+,1,210,1,,,,,
AL,ALF2_1G3Y.3.6,F,ALF2_1G3Y,3,pred+/dif,pred+/AH,pred+,AH,,2,24-Apr,3:20 PM,pred-,2,94,1,,,,,
AL,ALF2_1O2G.1.3,F,ALF2_1O2G,1,pred+/dif,pred+/AH,pred+,AH,,1,10-Mar,3:55 PM,pred-,1,221,90,,,,,
AL,ALF2_1O2G.1.3,F,ALF2_1O2G,1,pred+/dif,pred+/AH,pred+,AH,,2,11-Mar,4:40 PM,pred+,1,215,67,,,,,
AL,ALF2_1O2G.2.5,F,ALF2_1O2G,2,pred+/dif,pred+/AH,pred+,AH,,1,15-Apr,5:50 PM,pred+,1,232,6,,,,,
AL,ALF2_1O2G.2.5,F,ALF2_1O2G,2,pred+/dif,pred+/AH,pred+,AH,,2,16-Apr,NA,pred-,NA,206,11,,,,,
AL,ALF2_1O2G.3.4,F,ALF2_1O2G,3,pred+/dif,pred+/AH,pred+,AH,,1,12-May,4:54 PM,pred-,1,307,4,,,,,
AL,ALF2_1O2G.3.4,F,ALF2_1O2G,3,pred+/dif,pred+/AH,pred+,AH,,2,13-May,5:20 PM,pred+,1,222,8,,,,,
AL,ALF2_1O2G.4.6,F,ALF2_1O2G,4,pred+/dif,pred+/AH,pred+,AH,,1,8-Jun,4:40 PM,pred+,1,131,24,bottom,,,,
AL,ALF2_1O2G.4.6,F,ALF2_1O2G,4,pred+/dif,pred+/AH,pred+,AH,,2,9-Jun,2:49 PM,pred-,1,452,2,,,,,
AL,ALF2_1O2G.4.7,F,ALF2_1O2G,4,pred+/dif,pred+/AH,pred+,AH,,1,8-Jun,4:20 PM,pred-,1,14,3,,,,,
AL,ALF2_1O2G.4.7,F,ALF2_1O2G,4,pred+/dif,pred+/AH,pred+,AH,,2,9-Jun,3:22 PM,pred+,1,156,2,,,,,
AL,ALF2_1O2O.3.7,F,ALF2_1O2O,3,pred+/dif,pred+/AH,pred+,AH,5-Jul,1,20-Aug,4:28 PM,pred+,1,73,2,,,,,
AL,ALF2_1O2O.3.7,F,ALF2_1O2O,3,pred+/dif,pred+/AH,pred+,AH,5-Jul,2,21-Aug,4:25 PM,pred-,1,32,34,,,,,
AL,ALF2_1O3O.5.3,F,ALF2_1O3O,5,pred+/dif,pred+/AH,pred+,AH,,1,15-Jun,3:30 PM,pred+,1,140,155,"172 attempts is actually out of 3 min and 20 sec because forgot to look at timer, so took average pecks per min and multiplied by 3",,,,
AL,ALF2_1O3O.5.3,F,ALF2_1O3O,5,pred+/dif,pred+/AH,pred+,AH,,2,16-Jun,3:33 PM,pred-,1,20,32,,,,,
AL,ALF2_1O3Y.3.12,F,ALF2_1O3Y,3,pred+/dif,pred+/AH,pred+,AH,2-Jul,1,17-Aug,2:14 PM,pred-,1,362,108,"didn't eat 8/18, 8/19, 8/20",,,,
AL,ALF2_1O3Y.3.12,F,ALF2_1O3Y,3,pred+/dif,pred+/AH,pred+,AH,2-Jul,2,NA,NA,pred+,3,600,0,didn't eat,,,,
AL,ALF2_1O3Y.3.13,F,ALF2_1O3Y,3,pred+/dif,pred+/AH,pred+,AH,2-Jul,1,17-Aug,2:03 PM,pred-,1,65,1,,,,,
AL,ALF2_1O3Y.3.13,F,ALF2_1O3Y,3,pred+/dif,pred+/AH,pred+,AH,2-Jul,2,18-Aug,2:50 PM,pred+,1,584,1,,,,,
AL,ALF2_1P3G.5.3,F,ALF2_1P3G,5,pred+/dif,pred+/AH,pred+,AH,,1,30-Jun,2:18 PM,pred-,1,194,4,was very still most of tiral ,,,,
AL,ALF2_1P3G.5.3,F,ALF2_1P3G,5,pred+/dif,pred+/AH,pred+,AH,,2,1-Jul,2:52 PM,pred+,1,46,3,,,,,
AL,ALF2_1P4O.2.1,F,ALF2_1P4O,2,pred+/dif,pred+/AH,pred+,AH,,1,11-Apr,4:55 PM,pred+,1,370,4,,,,,
AL,ALF2_1P4O.2.1,F,ALF2_1P4O,2,pred+/dif,pred+/AH,pred+,AH,,2,12-Apr,3:23 PM,pred-,1,247,5,mostly ate from bottom,,,,
AL,ALF2_1P4O.4.4,F,ALF2_1P4O,4,pred+/dif,pred+/AH,pred+,AH,,1,5-Jun,2:20 PM,pred+,1,168,46,,,,,
AL,ALF2_1P4O.4.4,F,ALF2_1P4O,4,pred+/dif,pred+/AH,pred+,AH,,2,6-Jun,5:40 PM,pred-,1,227,28,bottom to top,,,,
AL,ALF2_1P4P.5.2,F,ALF2_1P4P,5,pred+/dif,pred+/AH,pred+,AH,,1,15-May,3:55 PM,pred+,1,119,2,,,,,
AL,ALF2_1P4P.5.2,F,ALF2_1P4P,5,pred+/dif,pred+/AH,pred+,AH,,2,17-May,2:30 PM,pred-,2,100,29,,,,,
AL,ALF2_3G4G.1.5,F,ALF2_3G4G,1,pred+/dif,pred+/AH,pred+,AH,,1,9-Mar,3:30 PM,pred+,1,145,7,,,,,
AL,ALF2_3G4G.1.5,F,ALF2_3G4G,1,pred+/dif,pred+/AH,pred+,AH,,2,11-Mar,4:20 PM,pred-,2,147,2,,,,,
AL,ALF2_3G4G.2.5,F,ALF2_3G4G,2,pred+/dif,pred+/AH,pred+,AH,,1,9-Apr,4:43 PM,pred-,1,5,60,,,,,
AL,ALF2_3G4G.2.5,F,ALF2_3G4G,2,pred+/dif,pred+/AH,pred+,AH,,2,10-Apr,5:07 PM,pred+,1,55,7,lots of swimming in circles ,,,,
AL,ALF2_3G4G.3.9,F,ALF2_3G4G,3,pred+/dif,pred+/AH,pred+,AH,,1,4-May,5:15 PM,pred+,1,81,62,,,,,
AL,ALF2_3G4G.3.9,F,ALF2_3G4G,3,pred+/dif,pred+/AH,pred+,AH,,2,5-May,NA,pred-,1,20,15,,,,,
AL,ALF2_3G4G.4.6,F,ALF2_3G4G,4,pred+/dif,pred+/AH,pred+,AH,,1,1-Jun,6:10 PM,pred-,2,35,30,,,,,
AL,ALF2_3G4G.4.6,F,ALF2_3G4G,4,pred+/dif,pred+/AH,pred+,AH,,2,2-Jun,2:30 PM,pred+,1,121,9,,,,,
AL,ALF2_1G3P.4.4,M,ALF2_1G3P,4,pred+/dif,pred+/AH,pred+,AH,,1,1-Apr,3:00 PM,pred-,1,149,2,frantic swimming ,,,,
AL,ALF2_1G3P.4.4,M,ALF2_1G3P,4,pred+/dif,pred+/AH,pred+,AH,,2,2-Apr,4:00 PM,pred+,1,15,6,,,,,
AL,ALF2_1G3P.5.4,M,ALF2_1G3P,5,pred+/dif,pred+/AH,pred+,AH,,1,24-Apr,3:30 PM,pred-,1,22,30,,,,,
AL,ALF2_1G3P.5.4,M,ALF2_1G3P,5,pred+/dif,pred+/AH,pred+,AH,,2,25-Apr,3:50 PM,pred+,1,4,46,,,,,
AL,ALF2_1G3P.6.1,M,ALF2_1G3P,6,pred+/dif,pred+/AH,pred+,AH,,1,16-May,10:19 PM,pred-,1,62,7,,,,,
AL,ALF2_1G3P.6.1,M,ALF2_1G3P,6,pred+/dif,pred+/AH,pred+,AH,,2,17-May,2:52 PM,pred+,1,144,2,,,,,
AL,ALF2_1O2G.3.5,M,ALF2_1O2G,3,pred+/dif,pred+/AH,pred+,AH,,1,14-May,3:54 PM,pred+,3,55,13,redo from 5/12 and 5/13,,,,
AL,ALF2_1O2G.3.5,M,ALF2_1O2G,3,pred+/dif,pred+/AH,pred+,AH,,2,15-May,3:30 PM,pred-,1,14,2,,,,,
AL,ALF2_1O2O.1.7,M,ALF2_1O2O,1,pred+/dif,pred+/AH,pred+,AH,,1,24-Mar,4:05 PM,pred+,1,220,2,,,,,
AL,ALF2_1O2O.1.7,M,ALF2_1O2O,1,pred+/dif,pred+/AH,pred+,AH,,2,25-Mar,4:13 PM,pred-,1,599,7,,,,,
AL,ALF2_1O2O.2.11,M,ALF2_1O2O,2,pred+/dif,pred+/AH,pred+,AH,,1,27-Jul,3:30 PM,pred+,1,442,2,,,,,
AL,ALF2_1O2O.2.11,M,ALF2_1O2O,2,pred+/dif,pred+/AH,pred+,AH,,2,28-Jul,3:30 PM,pred-,1,35,24,,,,,
AL,ALF2_1O2O.2.9,M,ALF2_1O2O,2,pred+/dif,pred+/AH,pred+,AH,,1,27-Jul,3:18 PM,pred+,1,42,2,didn't eat 7/28,,,,
AL,ALF2_1O2O.2.9,M,ALF2_1O2O,2,pred+/dif,pred+/AH,pred+,AH,,2,29-Jul,4:06 PM,pred-,2,86,7,,,,,
AL,ALF2_1O2O.3.8,M,ALF2_1O2O,3,pred+/dif,pred+/AH,pred+,AH,,1,20-Aug,3:50 PM,pred-,1,90,12,mostly bottom pecks,,,,
AL,ALF2_1O2O.3.8,M,ALF2_1O2O,3,pred+/dif,pred+/AH,pred+,AH,,2,21-Aug,4:09 PM,pred+,1,329,1,,,,,
AL,ALF2_1O3O.4.6,M,ALF2_1O3O,4,pred+/dif,pred+/AH,pred+,AH,,1,19-May,2:49 PM,pred+,1,26,7,top to bottom,,,,
AL,ALF2_1O3O.4.6,M,ALF2_1O3O,4,pred+/dif,pred+/AH,pred+,AH,,2,20-May,5:18 PM,pred-,1,40,3,,,,,
AL,ALF2_1O3O.6.2,M,ALF2_1O3O,6,pred+/dif,pred+/AH,pred+,AH,,1,11-Jul,2:57 PM,pred-,1,75,80,,,,,
AL,ALF2_1O3O.6.2,M,ALF2_1O3O,6,pred+/dif,pred+/AH,pred+,AH,,2,13-Jul,2:19 PM,pred+,2,11,3,didn't eat 7/12 very still sitting at top of tank,,,,
AL,ALF2_1O3Y.1.1,M,ALF2_1O3Y,1,pred+/dif,pred+/AH,pred+,AH,,1,7-Feb,4:25 PM,pred+,2,106,2,redone from 2/6,,,,
AL,ALF2_1O3Y.1.1,M,ALF2_1O3Y,1,pred+/dif,pred+/AH,pred+,AH,,2,8-Feb,3:55 PM,pred-,1,21,8,,,,,
AL,ALF2_1O3Y.3.14,M,ALF2_1O3Y,3,pred+/dif,pred+/AH,pred+,AH,,1,17-Aug,3:07 PM,pred+,1,278,1,,,,,
AL,ALF2_1O3Y.3.14,M,ALF2_1O3Y,3,pred+/dif,pred+/AH,pred+,AH,,2,19-Aug,4:17 PM,pred-,2,77,1,didn't eat 8/18,,,,
AL,ALF2_1P2Y.2.9,M,ALF2_1P2Y,2,pred+/dif,pred+/AH,pred+,AH,,1,15-Aug,2:57 PM,pred-,3,432,3,"didn't eat 8/13, /14",,,,
AL,ALF2_1P2Y.2.9,M,ALF2_1P2Y,2,pred+/dif,pred+/AH,pred+,AH,,2,16-Aug,3:33 PM,pred+,1,164,5,this may be a miswritted ID - grwoth log 1P3Y.2.9,,,,
AL,ALF2_1P4G.3.5,M,ALF2_1P4G,3,pred+/dif,pred+/AH,pred+,AH,,1,24-Sep,1:50 PM,pred+,1,37,15,,,,,
AL,ALF2_1P4G.3.5,M,ALF2_1P4G,3,pred+/dif,pred+/AH,pred+,AH,,2,25-Sep,3:10 PM,pred-,1,85,10,,,,,
AL,ALF2_1P4G.3.6,M,ALF2_1P4G,3,pred+/dif,pred+/AH,pred+,AH,,1,24-Sep,1:37 PM,pred-,1,346,3,didn't eat 9/25,,,,
AL,ALF2_1P4G.3.6,M,ALF2_1P4G,3,pred+/dif,pred+/AH,pred+,AH,,2,26-Sep,2:00 PM,pred+,2,255,2,doulbe fed in morning,,,,
AL,ALF2_3G4G.2.6,M,ALF2_3G4G,2,pred+/dif,pred+/AH,pred+,AH,,2,10-Apr,4:56 PM,pred-,1,50,31,,,,,
AL,ALF2_3G4G.2.6,M,ALF2_3G4G,2,pred+/dif,pred+/AH,pred+,AH,,1,9-Apr,5:07 PM,pred+,1,337,1,,,,,
AL,ALF2_1P4O.7.4,F,ALF2_1P4O,7,pred+/dif,pred+/AH,pred+,AH,,1,28-Sep,3:20 PM,pred-,1,285,43,,,,,
AL,ALF2_1P4O.7.4,F,ALF2_1P4O,7,pred+/dif,pred+/AH,pred+,AH,,2,29-Sep,3:40 PM,pred+,1,47,7,,,,,
AL,ALF2_1G3P.5.6,F,ALF2_1G3P,5,pred+/same,pred+/AL,pred+,AL,,1,27-Apr,3:08 PM,pred-,1,61,23,,,,,
AL,ALF2_1G3P.5.6,F,ALF2_1G3P,5,pred+/same,pred+/AL,pred+,AL,,2,30-Apr,3:00 PM,pred+,3,345,6,,,,,
AL,ALF2_1G3P.6.2,F,ALF2_1G3P,6,pred+/same,pred+/AL,pred+,AL,,1,16-May,10:27 PM,pred-,1,91,16,,,,,
AL,ALF2_1G3P.6.2,F,ALF2_1G3P,6,pred+/same,pred+/AL,pred+,AL,,2,19-May,NA,pred+,3,NA,NA,fish kind of tilted on 5/17,,,,
AL,ALF2_1O2G.2.4,F,ALF2_1O2G,2,pred+/same,pred+/AL,pred+,AL,,1,17-Apr,4:40 PM,pred+,3,190,7,,,,,
AL,ALF2_1O2G.2.4,F,ALF2_1O2G,2,pred+/same,pred+/AL,pred+,AL,,2,19-Apr,3:26 PM,pred-,2,470,3,middle of water column ,,,,
AL,ALF2_1O2G.4.5,F,ALF2_1O2G,4,pred+/same,pred+/AL,pred+,AL,,1,8-Jun,4:30 PM,pred-,1,84,1,,,,,
AL,ALF2_1O2G.4.5,F,ALF2_1O2G,4,pred+/same,pred+/AL,pred+,AL,,2,9-Jun,3:15 PM,pred+,1,126,1,,,,,
AL,ALF2_1O2O.3.6,F,ALF2_1O2O,3,pred+/same,pred+/AL,pred+,AL,,1,22-Aug,2:27 PM,pred+,3,432,22,"didn't eat 8/20, 8/21",,,,
AL,ALF2_1O2O.3.6,F,ALF2_1O2O,3,pred+/same,pred+/AL,pred+,AL,,2,25-Aug,3:14 PM,pred-,3,12,56,"didn't eat 8/23, 8/24",,,,
AL,ALF2_1O3O.2.4,F,ALF2_1O3O,2,pred+/same,pred+/AL,pred+,AL,,1,29-Mar,3:15 PM,pred+,1,73,30,,,,,
AL,ALF2_1O3O.2.4,F,ALF2_1O3O,2,pred+/same,pred+/AL,pred+,AL,,2,30-Mar,4:00 PM,pred-,1,80,10,only day 1 videos ,,,,
AL,ALF2_1O3O.4.5,F,ALF2_1O3O,4,pred+/same,pred+/AL,pred+,AL,,1,19-May,2:44 PM,pred+,1,34,47,bottom;top;bottom,,,,
AL,ALF2_1O3O.4.5,F,ALF2_1O3O,4,pred+/same,pred+/AL,pred+,AL,,2,20-May,5:23 PM,pred-,1,105,4,"data sheet said pred-/same, but the growth log shows pred+/same ",,,,
AL,ALF2_1O3O.6.1,F,ALF2_1O3O,6,pred+/same,pred+/AL,pred+,AL,,1,11-Jul,3:02 PM,pred+,1,41,22,first 7 pecks at bottom,,,,
AL,ALF2_1O3O.6.1,F,ALF2_1O3O,6,pred+/same,pred+/AL,pred+,AL,,2,12-Jul,2:08 PM,pred-,1,356,2,,,,,
AL,ALF2_1O3Y.3.10,F,ALF2_1O3Y,3,pred+/same,pred+/AL,pred+,AL,,1,17-Aug,2:29 PM,pred-,1,244,1,,,,,
AL,ALF2_1O3Y.3.10,F,ALF2_1O3Y,3,pred+/same,pred+/AL,pred+,AL,,2,19-Aug,3:58 PM,pred+,2,221,9,,,,,
AL,ALF2_1P2Y.2.7,F,ALF2_1P2Y,2,pred+/same,pred+/AL,pred+,AL,,1,15-Aug,2:00 PM,pred+,3,71,8,"didn't eat 8/13, 8/14",,,,
AL,ALF2_1P2Y.2.7,F,ALF2_1P2Y,2,pred+/same,pred+/AL,pred+,AL,,2,16-Aug,3:27 PM,pred-,1,76,43,,,,,
AL,ALF2_1P3G.3.6,F,ALF2_1P3G,3,pred+/same,pred+/AL,pred+,AL,,1,11-May,3:24 PM,pred+,3,19,5,,,,,
AL,ALF2_1P3G.3.6,F,ALF2_1P3G,3,pred+/same,pred+/AL,pred+,AL,,2,12-May,4:49 PM,pred-,1,43,3,,,,,
AL,ALF2_1P3G.4.5,F,ALF2_1P3G,4,pred+/same,pred+/AL,pred+,AL,,1,8-Jun,4:27 PM,pred+,1,24,25,,,,,
AL,ALF2_1P3G.4.5,F,ALF2_1P3G,4,pred+/same,pred+/AL,pred+,AL,,2,9-Jun,2:55 PM,pred-,1,40,7,,,,,
AL,ALF2_1P4G.2.4,F,ALF2_1P4G,2,pred+/same,pred+/AL,pred+,AL,13-Jul,1,28-Aug,3:49 PM,pred-,1,99,43,,,,,
AL,ALF2_1P4G.2.4,F,ALF2_1P4G,2,pred+/same,pred+/AL,pred+,AL,13-Jul,2,30-Aug,4:59 PM,pred+,2,92,18,didn't eat 8/29,,,,
AL,ALF2_1P4G.3.3,F,ALF2_1P4G,3,pred+/same,pred+/AL,pred+,AL,,1,24-Sep,1:45 PM,pred+,1,147,78,started eating at bottom,,,,
AL,ALF2_1P4G.3.3,F,ALF2_1P4G,3,pred+/same,pred+/AL,pred+,AL,,2,25-Sep,3:45 PM,pred-,1,184,64,,,,,
AL,ALF2_1P4G.3.4,F,ALF2_1P4G,3,pred+/same,pred+/AL,pred+,AL,,1,NA,NA,pred-,3,600,0,"didn't eat 9/24, 9/25, 9/26",,,,
AL,ALF2_1P4G.3.4,F,ALF2_1P4G,3,pred+/same,pred+/AL,pred+,AL,,2,NA,NA,pred+,NA,NA,NA,not tested,,,,
AL,ALF2_1P4O.1.3,F,ALF2_1P4O,1,pred+/same,pred+/AL,pred+,AL,,1,12-Feb,2:56 PM,pred+,1,76,84,,,,,
AL,ALF2_1P4O.1.3,F,ALF2_1P4O,1,pred+/same,pred+/AL,pred+,AL,,2,13-Feb,2:50 PM,pred-,1,100,3,,,,,
AL,ALF2_1P4P.3.3,F,ALF2_1P4P,3,pred+/same,pred+/AL,pred+,AL,,1,24-Mar,4:43 PM,pred+,1,154,17,ate from bottom,,,,
AL,ALF2_1P4P.3.3,F,ALF2_1P4P,3,pred+/same,pred+/AL,pred+,AL,,2,25-Mar,4:45 PM,pred-,1,97,2,,,,,
AL,ALF2_3G4G.1.4,F,ALF2_3G4G,1,pred+/same,pred+/AL,pred+,AL,,1,12-Mar,NA,pred-,3,600,0,didn't eat 3x,,,,
AL,ALF2_3G4G.1.4,F,ALF2_3G4G,1,pred+/same,pred+/AL,pred+,AL,,2,NA,NA,pred+,NA,NA,NA,not tested,,,,
AL,ALF2_3G4G.4.5,F,ALF2_3G4G,4,pred+/same,pred+/AL,pred+,AL,,1,31-May,3:10 PM,pred+,1,366,1,,,,,
AL,ALF2_3G4G.4.5,F,ALF2_3G4G,4,pred+/same,pred+/AL,pred+,AL,,2,1-Jun,6:18 PM,pred-,1,322,2,,,,,
AL,ALF2_1G3O.2.5,M,ALF2_1G3O,2,pred+/same,pred+/AL,pred+,AL,16-Jul,1,31-Aug,2:15 PM,pred+,1,408,3,"all middle, may have pecked earlier but not certain",,,,
AL,ALF2_1G3O.2.5,M,ALF2_1G3O,2,pred+/same,pred+/AL,pred+,AL,16-Jul,2,1-Sep,5:23 PM,pred-,1,572,12,,,,,
AL,ALF2_1G3P.4.3,M,ALF2_1G3P,4,pred+/same,pred+/AL,pred+,AL,,1,1-Apr,3:00 PM,pred-,1,124,43,frantic swimming ,,,,
AL,ALF2_1G3P.4.3,M,ALF2_1G3P,4,pred+/same,pred+/AL,pred+,AL,,2,2-Apr,3:50 PM,pred+,1,16,34,,,,,
AL,ALF2_1G3Y.2.4,M,ALF2_1G3Y,2,pred+/same,pred+/AL,pred+,AL,,1,27-Mar,3:15 PM,pred-,1,47,53,,,,,
AL,ALF2_1G3Y.2.4,M,ALF2_1G3Y,2,pred+/same,pred+/AL,pred+,AL,,2,28-Mar,3:55 PM,pred+,1,23,5,,,,,
AL,ALF2_1O2O.1.6,M,ALF2_1O2O,1,pred+/same,pred+/AL,pred+,AL,,1,24-Mar,4:19 PM,pred+,1,238,9,,,,,
AL,ALF2_1O2O.1.6,M,ALF2_1O2O,1,pred+/same,pred+/AL,pred+,AL,,2,25-Mar,4:29 PM,pred-,1,44,6,,,,,
AL,ALF2_1O2O.2.6,M,ALF2_1O2O,2,pred+/same,pred+/AL,pred+,AL,,1,29-Jul,NA,pred+,3,600,0,didn’t eat 3x,,,,
AL,ALF2_1O2O.2.6,M,ALF2_1O2O,2,pred+/same,pred+/AL,pred+,AL,,2,NA,NA,pred-,NA,NA,NA,not tested,,,,
AL,ALF2_1O2O.2.7,M,ALF2_1O2O,2,pred+/same,pred+/AL,pred+,AL,,1,28-Jul,4:10 PM,pred+,2,197,2,didn't eat 7/27; 7/29,,,,
AL,ALF2_1O2O.2.7,M,ALF2_1O2O,2,pred+/same,pred+/AL,pred+,AL,,2,30-Jul,2:29 PM,pred-,2,59,4,,,,,
AL,ALF2_1P2Y.2.8,M,ALF2_1P2Y,2,pred+/same,pred+/AL,pred+,AL,,1,13-Aug,NA,pred-,3,600,0,didn't eat 3x,,,,
AL,ALF2_1P2Y.2.8,M,ALF2_1P2Y,2,pred+/same,pred+/AL,pred+,AL,,2,NA,NA,pred+,NA,NA,NA,not tested,,,,
AL,ALF2_1P4G.2.5,M,ALF2_1P4G,2,pred+/same,pred+/AL,pred+,AL,,1,28-Aug,4:19 PM,pred+,1,126,23,,,,,
AL,ALF2_1P4G.2.5,M,ALF2_1P4G,2,pred+/same,pred+/AL,pred+,AL,,2,29-Aug,3:41 PM,pred-,1,583,2,,,,,
AL,ALF2_1P4O.4.3,M,ALF2_1P4O,4,pred+/same,pred+/AL,pred+,AL,,1,6-Jun,5:45 PM,pred+,2,207,3,,,,,
AL,ALF2_1P4O.4.3,M,ALF2_1P4O,4,pred+/same,pred+/AL,pred+,AL,,2,7-Jun,2:51 PM,pred-,1,83,4,,,,,
AL,ALF2_1P4O.5.2,M,ALF2_1P4O,5,pred+/same,pred+/AL,pred+,AL,,1,4-Jul,2:59 PM,pred-,2,555,19,all at bottom,,,,
AL,ALF2_1P4O.5.2,M,ALF2_1P4O,5,pred+/same,pred+/AL,pred+,AL,,2,5-Jul,5:07 PM,pred+,1,313,16,all at bottom,,,,
AL,ALF2_1P4O.6.6,M,ALF2_1P4O,6,pred+/same,pred+/AL,pred+,AL,12-Jul,1,27-Aug,3:39 PM,pred+,1,82,10,,,,,
AL,ALF2_1P4O.6.6,M,ALF2_1P4O,6,pred+/same,pred+/AL,pred+,AL,12-Jul,2,28-Aug,3:15 PM,pred-,1,16,9,,,,,
AL,ALF2_1P4P.2.3,M,ALF2_1P4P,2,pred+/same,pred+/AL,pred+,AL,,1,26-Feb,4:25 PM,pred+,1,21,8,,,,,
AL,ALF2_1P4P.2.3,M,ALF2_1P4P,2,pred+/same,pred+/AL,pred+,AL,,2,27-Feb,3:50 PM,pred-,1,63,3,,,,,
AL,ALF2_3G4G.3.7,M,ALF2_3G4G,3,pred+/same,pred+/AL,pred+,AL,,1,4-May,4:52 PM,pred-,1,98,24,,,,,
AL,ALF2_3G4G.3.7,M,ALF2_3G4G,3,pred+/same,pred+/AL,pred+,AL,,2,5-May,3:54 PM,pred+,1,165,22,,,,,
AL,ALF2_3G4G.3.8,M,ALF2_3G4G,3,pred+/same,pred+/AL,pred+,AL,,1,5-May,NA,pred+,2,335,7,,,,,
AL,ALF2_3G4G.3.8,M,ALF2_3G4G,3,pred+/same,pred+/AL,pred+,AL,,2,7-May,NA,pred-,2,18,4,,,,,
AL,ALF2_3G4G.4.4,M,ALF2_3G4G,4,pred+/same,pred+/AL,pred+,AL,,1,31-May,2:20 PM,pred-,1,31,7,,,,,
AL,ALF2_3G4G.4.4,M,ALF2_3G4G,4,pred+/same,pred+/AL,pred+,AL,,2,1-Jun,6:25 PM,pred+,1,9,7,,,,,